Mem No,Title,FirstName,Surname,Job Title,Organisation,Address,Address 1,Town,County,Country,Postcode,Phone Number,Email,Area,Org Type,Mem Type#,,,,,,,,,,,,,,,,,,,,,
9,,Jacqui,Cooke,,Adur District Council,Community Safety Unit,Portland House Richmond Road ,Worthing,West Sussex,United Kingdom,BN11 1HS,0845 6070999 x ,jacqui.cooke@worthing.gov.uk,South East,District,PS,,,,,,,,,,,,,,,,,,,,,
11,,Tony,Kehoe,,Ajio Community Safety,22 Mill Mead,Rode Heath,Stoke On Trent,Staffordshire,United Kingdom,ST7 3RX,01270 876101,kehoeaj@btinternet.com,North West,Other,Sole,,,,,,,,,,,,,,,,,,,,,
1007,Mr,Eamonn,Landy,,An Garda Siochana,Harcourt Square,Harcourt Street,Dublin 2,,Eire,,00353 1 666 3032,eamonnlandy@yahoo.com,Other,Police Service,PS,,,,,,,,,,,,,,,,,,,,,
15,,Alison,Allen,,Antrim Borough Council,c/o Antrim Borough Council,Antrim Civic Centre 50 Stiles Way,Antrim,County Antrim,,BT41 2UB,028 9446 3113,alison.allen@antrim.gov.uk,Northern Ireland,Unitary,PS,,,,,,,,,,,,,,,,,,,,,
15-002,,Andrew,Irwin,,Antrim Borough Council,Antrim Civic Centre, 50 Stiles Way,Antrim,County Antrim,,BT41 2UB,028 9446 3113,andrew.irwin@antrim.gov.uk,Northern Ireland,Unitary,Add,,,,,,,,,,,,,,,,,,,,,
20,Mrs,Nicky,Dorrian,,Ards Borough Council,Council Offices ,2 Church Street  ,Newtownards,County Down,United Kingdom,BT23 4AP ,028 9182 4047 ,nicola.dorrian@ards-council.gov.uk,Northern Ireland,Unitary,PS,,,,,,,,,,,,,,,,,,,,,
22,Mr,John,Doyle,Community Safety Manager,Armagh City & District Council,Council Offices ,The Palace Demesne,Armagh,County Armagh,United Kingdom,BT60 4EL,028 3752 9600,john.doyle@armagh.gov.uk,Northern Ireland,Unitary,PS,,,,,,,,,,,,,,,,,,,,,
22-002,Mrs,Patricia,Gibson,DPP Manager,Armagh City & District Council,Council Offices ,The Palace Demesne,Armagh,County Armagh,United Kingdom,BT60 4EL,02837 529636,patricia.gibson@armagh.gov.uk,Northern Ireland,Unitary,Add,,,,,,,,,,,,,,,,,,,,,
22-001,,Stephanie,Rock,,Armagh City & District Council,Council Offices,The Palace Demesne,Armagh,County Armagh,,BT60 4EL,02837 529600,stephanie.rock@armagh.gov.uk,Northern Ireland,Unitary,Add,,,,,,,,,,,,,,,,,,,,,
27,Mr,Aidan,Lavin,,Aspect ASB Consultancy,12 Villiers Crescent,,St Helens,Merseyside,United Kingdom,WA10 5HN,07967 777097,aspectasbconsultancy@hotmail.co.uk,North West,Other,Sole,,,,,,,,,,,,,,,,,,,,,
31,,Barbara,Brown,,Avon Fire & Rescue Service,Avon Fire & Rescue Services HQ ,Temple Back ,Bristol,Avon,United Kingdom,BS1 6EU ,01179 262061 ,barbara.brown@avonfire.gov.uk,South West,Fire Service,PS,,,,,,,,,,,,,,,,,,,,,
31-001,,Rosa,Clark,,Avon Fire & Rescue Service,Avon Fire & Rescue Service HQ,Temple Beck,Bristol,Avon,,BS1 6EU,01179 262061†,rosa.clark@avonfire.gov.uk,South West,Fire Service,Add,,,,,,,,,,,,,,,,,,,,,
969,,Colin,Cooper,,AVR Group (TA National Monitoring),Unit 16 Attenburys Park Estate,Attenburys Lane,Timperley,Cheshire,United Kingdom,WA14 5QN,0870 400 9984,colin.cooper@monitoring.co.uk,North West,Other,Commercial,,,,,,,,,,,,,,,,,,,,,
32,,Kay,Aitken,,Aylesbury Vale District Council,Exchange Street ,,Aylesbury ,Buckinghamshire,United Kingdom,HP20 1UB ,01296 585005 ,kaitken@aylesburyvaledc.gov.uk,South East,District,PS,,,,,,,,,,,,,,,,,,,,,
34,Mrs,Karen,Moore,Community Safety Coordinator,Ballymena Borough Council,Economic Development Unit ,4 Wellington Court ,Ballymena ,County Antrim,United Kingdom,BT43 6EQ ,028 256 33941 ,karen.moore@ballymena.gov.uk,Northern Ireland,Unitary,PS,,,,,,,,,,,,,,,,,,,,,
36,,Cathy,Watson,,Ballymoney Borough Council,Riada House,14 Charles Street,Ballymoney,County Antrim,United Kingdom,BT53 6DZ,028 2766 0257,cathy.watson@ballymoney.gov.uk,Northern Ireland,Unitary,PS,,,,,,,,,,,,,,,,,,,,,
37,,Rhonda,Abraham,,Banbridge District Council,Civic Building,Downshire Road,Banbridge,County Down,United Kingdom,BT32 3JY,028 4066 0600,rhonda.abraham@banbridge.gov.uk,Northern Ireland,Unitary,PS,,,,,,,,,,,,,,,,,,,,,
37-001,,Alison,Beattie,,Banbridge District Council,Civic Building,Downshire Road,Banbridge,County Down,,BT32 3JY,028 4066 0600,alison.beattie@banbridge.gov.uk,Northern Ireland,Unitary,Add,,,,,,,,,,,,,,,,,,,,,
42-001,,Colin,Barnes,,Barnsley Youth Offending Team,McLintocs Building, Crookes Street,Barnsley,South Yorkshire,,S70 6BX,01226 774986,colinbarnes@barnsley.gov.uk,Yorks & Humber,Unitary,Add,,,,,,,,,,,,,,,,,,,,,
45,,Paula,Mason ,,Basildon District Council,Regeneration Services ,2nd Floor - The Basildon Centre  St. Martins Square  ,Basildon,Essex,United Kingdom,SS14 1DL ,01268 294764,paula.mason@basildon.gov.uk,East of England,District,PS,,,,,,,,,,,,,,,,,,,,,
46,,Steve,Allum,,Basingstoke & Deane Borough Council,Community Services ,Civic Offices  London Road ,Basingstoke ,Hampshire,United Kingdom,RG21 7EA,01256 845738,steve.allum@basingstoke.gov.uk,South East,District,PS,,,,,,,,,,,,,,,,,,,,,
49,Mrs,Sally,Flint,Communities Manager,Bedford Borough Council,Riverside House B101,6 Horne Lane,Bedford,Bedfordshire,United Kingdom,MK40 1PY,01234 221881,sally.flint@bedford.gov.uk,East of England,District,PS,,,,,,,,,,,,,,,,,,,,,
56-001,,Michelle,Bagnall,,Belfast City Council,The Cecil Ward Building,4-10 Linenhall Street,Belfast,County Antrim,,BT2 8BP,02890 320202,bagnallm@belfastcity.gov.uk,Northern Ireland,Unitary,Add,,,,,,,,,,,,,,,,,,,,,
56-002,,Eve,Bremner,,Belfast City Council,The Cecil Ward Building,4-10 Linenhall Street,Belfast,County Antrim,,BT2 8BP,028 9032 0202 x,bremnere@belfastcity.gov.uk,Northern Ireland,Unitary,Add,,,,,,,,,,,,,,,,,,,,,
56-003,,Suzanne,Gowling,,Belfast City Council,The Cecil Ward Building,4-10 Linenhall Street,Belfast,County Antrim,,BT2 8BP,02890 320202,gowlings@belfastcity.gov.uk,Northern Ireland,Unitary,Add,,,,,,,,,,,,,,,,,,,,,
56-004,,Stevie,Lavery,,Belfast City Council,the Cecil Ward Building,4-10 Linenhall Street,Belfast,County Antrim,,BT2 8BP,02890 320202,laverys@belfastcity.gov.uk,Northern Ireland,Unitary,Add,,,,,,,,,,,,,,,,,,,,,
56,,Richard,McLernon,,Belfast City Council,The Cecil Ward Building ,4-10 Linenhall Street ,Belfast ,Co. Antrim,United Kingdom,BT2 8BP ,028 902 70304  x 3324,mclernonr@belfastcity.gov.uk,Northern Ireland,Unitary,PS,,,,,,,,,,,,,,,,,,,,,
56-005,,Kirsten,Mullen,,Belfast City Council,The Cecil Ward Building,4-10 Linenhall Street,Belfast,County Antrim,,BT2 8BP,028 902 70304†,mullenk@belfastcity.gov.uk,Northern Ireland,Unitary,Add,,,,,,,,,,,,,,,,,,,,,
59,,Kevin,Taylor,,Bexley Council,Belvedere Police Station ,2 Nuxley Road ,Belvedere,Kent,United Kingdom,DA17 5JF,0208 284 5505 ,emma.taylor@bexley.gov.uk,South East,Unitary,PS,,,,,,,,,,,,,,,,,,,,,
65,,Mark,Aspin ,,Blackburn with Darwen Council,Community Safety Team,Floor 3 Town Hall,Blackburn ,Lancashire,United Kingdom,BB1 7DY,01254 585513 ,mark.aspin@blackburn.gov.uk,North West,Unitary,PS,,,,,,,,,,,,,,,,,,,,,
65-001,Ms,Vicky,Clark,Community Safety Manager,Blackburn with Darwen Council,Community Safety Team,Old Town Hall,Blackburn ,Lancashire,United Kingdom,BB1 7DY,01254 585448,vicky.clark@blackburn.gov.uk,North West,Unitary,Add,,,,,,,,,,,,,,,,,,,,,
66,,Paolo,Pertica,,Blackpool Council,Community Safety & Drugs Team,Seasiders Way,Blackpool ,Lancashire,United Kingdom,FY1 6JY,01253 651160,paolo.pertica@blackpool.gov.uk,North West,District,PS,,,,,,,,,,,,,,,,,,,,,
68,Ms,Helena,Hunt,Community Safety Manager,Blaenau Gwent County Borough Council,The Lodge,Bedwelty Park,Tredegar,Gwent,,NP22 3LX,01495 356146,community.safety@blaenau-gwent.gov.uk,Wales,Unitary,PS,,,,,,,,,,,,,,,,,,,,,
72,,Gillian,Hughes,,Bolton Council,Community Safety ,Paderborn House ,Bolton ,Lancashire,United Kingdom,BL1 1JW ,01204 331061,gillian.hughes@bolton.gov.uk,North West,Unitary,PS,,,,,,,,,,,,,,,,,,,,,
982,,Frank,Prendergast,,Breckfield & North Everton Neighbourhood,Breckfield Centre,Breckfield Road North,Liverpool,Merseyside,,L5 4QT,0151 288 8412,frank.prendergast@liverpool.gov.uk,North West,Charity,Small Charity,,,,,,,,,,,,,,,,,,,,,
89,,Marice,Hawley,,Broxtowe Borough Council,"Strategy,  Performance And Community","Council Offices,  Foster Avenue Beeston",Nottingham,Nottinghamshire,United Kingdom,NG9 1AB ,01159 173492,marice.hawley@broxtowe.gov.uk,East Midlands,District,PS,,,,,,,,,,,,,,,,,,,,,
90,,Cath,Blake ,,Buckinghamshire County Council,"Room 2, Judges Lodgings ",Walton Street ,Aylesbury ,Buckinghamshire,United Kingdom,HP20 1UA ,01296 383979 ,cblake@buckscc.gov.uk,South East,County,PS,,,,,,,,,,,,,,,,,,,,,
92,Mr,Sam,McConnell,CSP Manager,Burnley Borough Council,18-20 Nicholas Street,,Burnley,Lancashire,United Kingdom,BB11 2AP,01282 425011,smcconnell@burnley.gov.uk,North West,District,PS,,,,,,,,,,,,,,,,,,,,,
93,Mr,David,Fowler,Head of Communities,Bury Metropolitan Borough Council,Knowsley Street ,,Bury,Lancashire,United Kingdom,BL9 0SW ,0161 253 6356 ,d.w.fowler@bury.gov.uk,North West,Unitary,PS,,,,,,,,,,,,,,,,,,,,,
96,Ms,Natalie,Kenny,Community Safety Officer,Caerphilly County Borough Council,Safer Caerphilly Community Safety Partnership,Pontllanfraith House  Blackwood Road,Blackwood,Gwent,United Kingdom,NP12 2YW,01495 235442,kennyn@caerphilly.gov.uk ,Wales,Unitary,PS,,,,,,,,,,,,,,,,,,,,,
102,Mrs,Katja,Nielsen,Community Safety Manager,Cambridgeshire County Council,c/o Fenland District Council,"Fenland Hall, Room 50",March,Cambridgeshire,United Kingdom,PE15 8NQ,01223 699837,Katja.Nielsen@cambridgeshire.gov.uk,East of England,County,PS,,,,,,,,,,,,,,,,,,,,,
104,,Wendy,Coleman,,Cambridgeshire Fire and Rescue Service,Brampton Road,,Huntingdon ,Cambridgeshire,United Kingdom,PE29 2NA,01480 444552,wendy.coleman@cambsfire.gov.uk,East of England,Fire Service,PS,,,,,,,,,,,,,,,,,,,,,
107,,Nick,Hackney,,Cannock Chase Council,Beecroft Road ,,Cannock,West Midlands,United Kingdom,WS11 1BG ,01543 464387,nickhackney@cannockchasedc.gov.uk,West Midlands,District,PS,,,,,,,,,,,,,,,,,,,,,
108,,Douglas,Rattray,,Canterbury City Council,Military Road,,Canterbury,Kent,United Kingdom,CT1 1YW,01227 862313,douglas.rattray@canterbury.gov.uk,South East,District,PS,,,,,,,,,,,,,,,,,,,,,
109,Mr,Steve,Carr,Operation Manager for Communites and Neighbourhoods,Cardiff County Council,Willcox House,Cardiff Bay,Cardiff,Wales,United Kingdom,CF11 0BA,02920 537289,scarr@cardiff.gov.uk,Wales,Unitary,PS,,,,,,,,,,,,,,,,,,,,,
109-002,Mr,Peter,King,,Cardiff County Council,Divisional HQ,James Street,Cardiff,Wales,Wales,CF10 5EW,02920 571524,PeKing@cardiff.gov.uk,Wales,Unitary,Add,,,,,,,,,,,,,,,,,,,,,
109-003,Mrs,Sheena,Lawson,,Cardiff County Council,Wilcox House,Cardiff Bay,Cardiff,Wales,,CF11 0BA,02920  537347,slawson@cardiff.gov.uk,Wales,Unitary,Add,,,,,,,,,,,,,,,,,,,,,
109-005,Mrs,Claire,Payne,Business Manager,Cardiff County Council,Wilcox House,Cardiff Bay,Cardiff,Wales,United Kingdom,CF11 0BA,02920 267124,ClPayne@cardiff.gov.uk,Wales,Unitary,Add,,,,,,,,,,,,,,,,,,,,,
109-008,Councillor,Judith,Woodman,Deputy Leader,Cardiff County Council,Room 525a,County Hall  Atlantic Wharf,Cardiff,Wales,United Kingdom,CF10 4UW,02920 872501,JWoodman@cardiff.gov.uk,Wales,Unitary,Add,,,,,,,,,,,,,,,,,,,,,
111,Mrs,Kate,Thomas,Community Safety Manager,Carmarthenshire County Council,Ammanford Police Station,Foundry Road,Ammanford,Carmarthenshire,Wales,SA18 2LS,01269 598355,KHThomas@carmarthenshire.gov.uk,Wales,Unitary,PS,,,,,,,,,,,,,,,,,,,,,
112,,Alison,Kane,,Carrickfergus Museum & Civic Centre,Antrim Street,,Carrickfergus,County Antrim,United Kingdom,BT38 7DG,028 9335 8036,alisonk@carrickfergus.org,Northern Ireland,Unitary,PS,,,,,,,,,,,,,,,,,,,,,
116,,Stephen,Addley,,Castlereagh Community Safety Partnership,Castlereagh Borough Council,Bradford Court Upper Gallwally,Castlereagh,County Antrim,United Kingdom,BT8 6RB,0289 049 4661,stephenaddley@castlereagh.gov.uk,Northern Ireland,Unitary,PS,,,,,,,,,,,,,,,,,,,,,
729,Mrs,Jeanette,Keyte,Head of Community Safety,Central Bedfordshire Council,District Offices ,High Street North ,Dunstable,Bedfordshire,United Kingdom,LU6 1LF ,0300 300 5252,Jeanette.Keyte@centralbedfordshire.gov.uk,East of England,District,PS,,,,,,,,,,,,,,,,,,,,,
729--001,Mr,David,Rollings,Community Safety Office (Partnership),Central Bedfordshire Council,Priory House,Monks Walk Chicksands,Shefford,Bedfordshire,United Kingdom,SG17 5TQ,0300 300 4225,david.rollings@centralbedfordshire.gov.uk,East of England,District,Add,,,,,,,,,,,,,,,,,,,,,
729-002,Mr,John,Seamarks,Community Safety Officer (Operations),Central Bedfordshire Council,District Offices,High Street North,Dunstable,Bedfordshire,,LU6 1LF,0300 300 6016,john.seamarks@centralbedfordshire.gov.uk,East of England,District,Add,,,,,,,,,,,,,,,,,,,,,
121,,Mark,Babington,,Centro,Centro House,16 Summer Lane,Birmingham ,West Midlands,United Kingdom,B19 3SD ,0121 214 7286,MarkBabington@centro.org.uk,West Midlands,Other,PS,,,,,,,,,,,,,,,,,,,,,
121/001,,Michael,Sayers,,Centro,Centro House,16 Summer Lane,Birmingham,West Midlands,United Kingdom,B19 3SD,0121 214 7185,michaelsayers@centro.org.uk,West Midlands,Other,Add,,,,,,,,,,,,,,,,,,,,,
124,,Spencer,Clarke,,Chelmsford Borough Council,Civic Centre ,,Chelmsford ,Essex,United Kingdom,CM1 1JE ,01245 606477,spencer.clarke@chelmsford.gov.uk,East of England,District,PS,,,,,,,,,,,,,,,,,,,,,
126-001,,Helen,Down,,Cheltenham Borough Council,Municipal Offices,Promenade,Cheltenham,Gloucestershire,United Kingdom,GL50 1PP,01242 774960,helen.down@cheltenham.gov.uk,South West,District,Add,,,,,,,,,,,,,,,,,,,,,
126,,Trevor,Gladding,,Cheltenham Borough Council,Municipal Offices ,Promenade ,Cheltenham ,Gloucestershire,United Kingdom,GL50 1PP ,01242 264368 ,trevor.gladding@cheltenham.gov.uk,South West,District,PS,,,,,,,,,,,,,,,,,,,,,
128,,Cheryll,Wright,,Cheryll Wright,39 Pershore Grove,,Carshalton,Surrey,United Kingdom,SM5 1EJ,0208 646 1214,cheryllwright@btinternet.com,London,Unitary,PS,,,,,,,,,,,,,,,,,,,,,
130-001,Mr,Stephen,Bamford,Crime Reduction Advisor,Cheshire Constabulary,Constabulary Headquarters,Clemonds Hey Oakmere Road,Winsford,Cheshire,United Kingdom,CW7 2UA,01244 614551,stephen.bamford@cheshire.pnn.police.uk,North West,Police Service,Add,,,,,,,,,,,,,,,,,,,,,
130,Miss,Jenny,Ford,Community Engagement Manager,Cheshire Constabulary,Constabulary Headquarters,Clemonds Hey Oakmere Road,Winsford,Cheshire,United Kingdom,CW7 2UA,01244 614551,jenny.ford@cheshire.pnn.police.uk,North West,Police Service,PS,,,,,,,,,,,,,,,,,,,,,
130-002,Mr,John,Roberts,Head of Communitie Unit,Cheshire Constabulary,Constabulary Headquarters,Clemonds Hey Oakmere Road,Winsford,Cheshire,United Kingdom,CW7 2UA,01244 614551,john.roberts20247@cheshire.pnn.police.uk,North West,Police Service,Add,,,,,,,,,,,,,,,,,,,,,
130-003,Inspector,Mark,Watson,Head of Diversity,Cheshire Constabulary,Safer & Stronger Communities Unit,Cheshire Constabulary Headquarters Clemonds Hey  Oakmere Road,Winsford,Cheshire,United Kingdom,CW7 2UA,01244 615270,mark.watson@cheshire.pnn.police.uk,North West,Police Service,Add,,,,,,,,,,,,,,,,,,,,,
130-004,Mr,Andy,Williams,Stronger Communities Manager,Cheshire Constabulary,Constabulary Headquarters,"Clemonds Hey, Oakmere Road",Winsford,Cheshire,United Kingdom,CW7 2UA,01244 614551,andy.williams@cheshire.pnn.police.uk,North West,Police Service,Add,,,,,,,,,,,,,,,,,,,,,
173,,Abigail,Webb,Community Safety Development Manager,Cheshire East Council,Crewe Police Station,Civic Centre,Crewe,Cheshire,United Kingdom,CW1 2DQ,01244 613352 ,Abigail.Webb@cheshireeast.gov.uk,North West,Unitary,PS,,,,,,,,,,,,,,,,,,,,,
132,,Gavin,Butler,,Cheshire West & Chester Council,Backford Hall,Backford,Chester,Cheshire,United Kingdom,CH1 6EA,01244 606774,gavin.butler@cheshire.gov.uk,North West,Unitary,PS,,,,,,,,,,,,,,,,,,,,,
141,,Katie,Galvin,,Chiltern District Council,Council Offices ,King George V Road ,Amersham ,Buckinghamshire,United Kingdom,HP6 5AW ,01494 732265,kgalvin@chiltern.gov.uk,South East,District,PS,,,,,,,,,,,,,,,,,,,,,
142,,Paul,Lowe,,Chorley Borough Council,Gillibrand Street ,,Chorley ,Lancashire,United Kingdom,PR7 2EL ,01257 515335 ,paul.lowe@chorley.gov.uk,North West,District,PS,,,,,,,,,,,,,,,,,,,,,
1006,Mrs,Christine,Graham,Company Director,Christine Graham Consultancy,8 Crabapple Green,Orton Wistow,Peterborough,Cambridgeshire,United Kingdom,PE2 6YR,01733 237861,christine@cgconsultancy.co.uk,East of England,Other,PS,,,,,,,,,,,,,,,,,,,,,
145,Mr,Andrew,Mitchell,,City of Edinburgh Council,"Chesser House, Level 4 East Wing",500 Gorgie Road,Edinburgh ,Scotland,,EH11 3YJ ,0131 469 5822,andrew.mitchell@edinburgh.gov.uk,Scotland,Unitary,PS,,,,,,,,,,,,,,,,,,,,,
146,,Andrea,Berkoff,,City of London Safer City Partnership,PO Box 270,Guildhall,London,London,United Kingdom,EC2P 2EJ,0207 456 9810,andrea.berkoff@cityoflondon.gov.uk,London,Unitary,PS,,,,,,,,,,,,,,,,,,,,,
146-002,,Sandra,Close,,City of London Safer City Partnership,PO Box 270,The Guildhall,London,London,,EC2P 2EJ,0207 332 3441,Sandra.Close@cityoflondon.gov.uk,London,Unitary,Add,,,,,,,,,,,,,,,,,,,,,
782,,Sue,Nelson,,Community Safety Partnerships Ltd,89 Back Lane South,Wheldrake,York  ,North Yorkshire,United Kingdom,YO19 6DT,01904 448062,suenelson@comsafetypartners.com,Yorks & Humber,Other,PS,,,,,,,,,,,,,,,,,,,,,
174,Ms,Sian,Taylor,,Conwy County Borough Council,Civic Offices,Public Protection,Colwyn Bay,Clwyd,United Kingdom,LL29 8AR,01492 575190,sian.taylor@conwy.gov.uk,Wales,Unitary,PS,,,,,,,,,,,,,,,,,,,,,
175,,Martina,Totten,,Cookstown District Council,Burn Road,,Cookstown,County Tyrone,,BT80 8DT,02886 762205,martina.totten@cookstown.gov.uk,Northern Ireland,Unitary,PS,,,,,,,,,,,,,,,,,,,,,
176/001,Mrs,Antonia,Malpas,Community Safety Officer,Corby Borough Council,Neighbourhood Pride,Deene House New Post Office Square,Corby,Northamptonshire,,NN17 1GD,01536 464254,antonia.malpas@corby.gov.uk,East Midlands,District,Add,,,,,,,,,,,,,,,,,,,,,
176,Mrs,Vicki,Rockall,Community Safety Manager,Corby Borough Council,Neighbourhood Pride,Deene House New Post Office Square,Corby ,Northamptonshire,United Kingdom,NN17 1GD,01536 464603,vicki.rockall@corby.gov.uk,East Midlands,District,PS,,,,,,,,,,,,,,,,,,,,,
178,,Tony,Dix,,Cotswold District Council,Trinity Rd ,,Cirencester  ,Gloucestershire,United Kingdom,GL7 1PX ,01285 623611,tony.dix@cotswold.gov.uk,South West,District,PS,,,,,,,,,,,,,,,,,,,,,
179,,Andrew,Thomas,,Council of the Isles of Scilly,Town Hall ,,St Marys ,Isles of Scilly,United Kingdom,TR21 0LW,01720 424037,athomas@scilly.gov.uk,South West,Unitary,PS,,,,,,,,,,,,,,,,,,,,,
185/001,,Lynette,Burke,,Craigavon Borough Council,"Civic Centre, PO Box 66",Lakeview Road,Craigavon,County Armagh,,BT64 1AL,02838 312484,lynette.burke@craigavon.gov.uk,Northern Ireland,Unitary,PS,,,,,,,,,,,,,,,,,,,,,
185,Miss,Sarah,Wilson,Community Safety Officer,Craigavon Borough Council,"Civic Centre, PO Box 66",Lakeview Road ,Craigavon,County Armagh,United Kingdom,BT64 1AL ,028 383 12484,Sarah.Wilson@craigavon.gov.uk,Northern Ireland,Unitary,Add,,,,,,,,,,,,,,,,,,,,,
677,Ms,Stacey,Mitchell,Community Safety Coordinator,Craven Community Safety Partnership,Granville Street,,Skipton,North Yorkshire,United Kingdom,BD23 1PS,01756 706291,smitchell@cravendc.gov.uk,Yorks & Humber,District,PS,,,,,,,,,,,,,,,,,,,,,
186,,Don,Edwardson,,Crawley Borough Council,Town Hall ,The Boulevard ,Crawley,West Sussex,United Kingdom,RH10 1UZ ,01293 438681 ,don.edwardson@crawley.gov.uk,South East,District,PS,,,,,,,,,,,,,,,,,,,,,
197,,Dave,Cording,,Crimestoppers Trust,66a London Road ,,Morden ,Surrey,United Kingdom,SM4 5BE ,0208 254 3200 ,dave.cording@crimestoppers-uk.org,South East,Other,PS,,,,,,,,,,,,,,,,,,,,,
202,,David,Willson,,CSPD Consultancy,29 Blackwood Avenue ,Woolton ,Liverpool ,Merseyside,United Kingdom,L25 4RN ,0151 428 5382 ,d.a.willson29@btinternet.com,North West,Other,PS,,,,,,,,,,,,,,,,,,,,,
213,Mrs,Claire,Smith,Community Safety Officer,Daventry District Council,Lodge Road,,Daventry,Northamptonshire,United Kingdom,NN11 5AF,01327 302519,CSmith@daventrydc.gov.uk,East Midlands,District,PS,,,,,,,,,,,,,,,,,,,,,
583-001,,Jennifer,Douglas,,Department of Justice Northern Ireland,4th Floor Millenium House,Great Victoria Street,Belfast,County Antrim,,BT2 7AQ,02890 828569,jennifer.douglas@dojni.x.gsi.gov.uk,Northern Ireland,Unitary,Add,,,,,,,,,,,,,,,,,,,,,
583-002,,Mark,Goodfellow,,Department of Justice Northern Ireland,Millenium House,Great Victoria Street,Belfast,County Antrim,,BT2 7AQ,02890 828569,mark.goodfellow@dojni.x.gsi.gov.uk,Northern Ireland,Unitary,Add,,,,,,,,,,,,,,,,,,,,,
583-004,,Mark,McGuicken,,Department of Justice Northern Ireland,Millenium House,Great Victoria Street,Belfast,County Antrim,,BT2 7AQ,02890 828569,mark.mcguicken@dojni.x.gsi.gov.uk,Northern Ireland,Unitary,Add,,,,,,,,,,,,,,,,,,,,,
583,,Robert,McKnight,,Department of Justice Northern Ireland,4th Floor,Millenium House  Great Victoria Street,Belfast ,County Antrim,United Kingdom,BT2 7AQ,02890 828569,Robert.McKnight@dojni.x.gsi.gov.uk,Northern Ireland,Unitary,PS,,,,,,,,,,,,,,,,,,,,,
583-005,,Colin,Scott,,Department of Justice Northern Ireland,4th Floor Millenium House,Great Victoria Street,Belfast,County Antrim,,BT2 7AQ,02890 828569,colin.scott@dojni.x.gsi.gov.uk,Northern Ireland,Unitary,Add,,,,,,,,,,,,,,,,,,,,,
218,,John,Amos,,Derbyshire Fire & Rescue Service,Community Safety ,Turnpike Business Park ,Alfreton ,Derbyshire,United Kingdom,DE55 7AD ,01773 837200 ,jamos@derbys-fire.gov.uk,East Midlands,Fire Service,PS,,,,,,,,,,,,,,,,,,,,,
220-001,,Helena,Hasson,,Derry City Council,98 Strand Road,,Derry,County Londonderry,,BT48 7NN,02871 376576,helena.hasson@derrycity.gov.uk,Northern Ireland,Unitary,Add,,,,,,,,,,,,,,,,,,,,,
220-002,,Sandra,Holden,,Derry City Council,98 Strand Road,,Londonderry,County Londonderry,,BT48 7NN,02871 376576†,sandra.holden@derrycity.gov.uk,Northern Ireland,Unitary,Add,,,,,,,,,,,,,,,,,,,,,
220,,Agnes,Kennedy,,Derry City Council,98 Strand Road ,,Londonderry,County Londonderry,United Kingdom,BT48 7NN ,02871 376576 ,agnes.kennedy@derrycity.gov.uk,Northern Ireland,Unitary,PS,,,,,,,,,,,,,,,,,,,,,
222,,Bob,Bunney,,Devon & Cornwall Constabulary,Territorial Policing and Partnership Dept ,Police Headquarters  Middlemoor ,Exeter,Devon,United Kingdom,EX2 7HQ ,01392 452559,robert.bunney@devonandcornwall.pnn.police.uk,South West,Police Service,PS,,,,,,,,,,,,,,,,,,,,,
224,Mr,Glen,Askew,,Devon & Somerset Fire & Rescue Service,Service Headquarters ,The Knowle  Clyst St George ,Exeter,Devon,United Kingdom,EX3 0NW ,01392 872285 ,gaskew@dsfire.gov.uk,South West,Fire Service,PS,,,,,,,,,,,,,,,,,,,,,
224-003,Mr,Dave,Church,Targeting & Evaluation Officer,Devon & Somerset Fire & Rescue Service,Service Headquarters ,The Knowle  Clyst St George ,Exeter,Devon,United Kingdom,EX3 0NW ,01392 872298,dchurch@dsfire.gov.uk,South West,Fire Service,Add,,,,,,,,,,,,,,,,,,,,,
224-001,Mr,Anne,Harrison-Bailey,Community Safety Support Manager,Devon & Somerset Fire & Rescue Service,Service Headquarters ,The Knowle  Clyst St George ,Exeter,Devon,United Kingdom,EX3 0NW ,01392 872392,aharrisonbailey@dsfire.gov.uk,South West,Fire Service,Add,,,,,,,,,,,,,,,,,,,,,
224-002,Mr,Philip,Martin,Group Manager,Devon & Somerset Fire & Rescue Service,Service Headquarters ,The Knowle  Clyst St George ,Exeter,Devon,United Kingdom,EX3 0NW ,07989 550732,pmartin@dsfire.gov.uk,South West,Fire Service,Add,,,,,,,,,,,,,,,,,,,,,
232,Mr,Christopher,Allen,"Community Safety, CCTV and Parking Manager",Dover District Council,Chief Executives Department ,White Cliffs Business Park ,Dover,Kent,United Kingdom,CT16 3PJ ,01304 872054,christopherallen@dover.gov.uk,South East,District,PS,,,,,,,,,,,,,,,,,,,,,
232-001,Ms,Heidi,Golden,Community Safety Partnership Officer,Dover District Council,Chief Executives Department ,White Cliffs Business Park ,Dover,Kent,United Kingdom,CT16 3PJ ,01304 872165,heidi.golden@dover.gov.uk,South East,District,Add,,,,,,,,,,,,,,,,,,,,,
233,,Janine,Hillen,,Down District Council,24 Strangford Road,,Downpatrick,County Down,United Kingdom,BT30 6SR,028 4461 0800,janine.hillen@downdc.gov.uk,Northern Ireland,Unitary,PS,,,,,,,,,,,,,,,,,,,,,
236,Mrs,Dawn,Hewitt,,Dudley Metropolitan Borough Council,Community Safety Team,"6th Floor,  Falcon House The Minories",Dudley,West Midlands,United Kingdom,DY2 8PG,01384 818215 ,dawn.hewitt@dudley.gov.uk,West Midlands,District,PS,,,,,,,,,,,,,,,,,,,,,
238,,Annette,McGahan,Community Safety Manager,Dungannon & South Tyrone Borough Council,Council Offices ,Circular Road,Dungannon,County Tyrone,United Kingdom,BT71 6DT,028 8772 0300,annette.mcgahan@dungannon.gov.uk,Northern Ireland,Unitary,PS,,,,,,,,,,,,,,,,,,,,,
253,,John,Fleming,,East Lindsey District Council,Tedder Hall ,Manby Park ,Louth ,Lincolnshire,United Kingdom,LN11 8UP ,01507 329558 ,john.fleming@e-lindsey.gov.uk,East Midlands,District,PS,,,,,,,,,,,,,,,,,,,,,
257,,Max,Hough,,East Riding of Yorkshire Council,Safe Communities,22 Lairgate,Beverley ,East Riding of Yorkshire,United Kingdom,HU17 8EP,01482 391016,max.hough@eastriding.gov.uk,Yorks & Humber,Unitary,PS,,,,,,,,,,,,,,,,,,,,,
259,,Marcus,Gomm,,East Sussex County Council,Safer Communities Team,"6th Floor, St Mary's House, St Leonards Road",Eastbourne,East Sussex,United Kingdom,BN21 3UU,01323 466531,marcus.gomm@eastsussex.gov.uk,South East,County,PS,,,,,,,,,,,,,,,,,,,,,
260,,Chris,Pascoe,,East Sussex Fire & Rescue Service,Headquarters ,20 Upperton Road ,Eastbourne ,East Sussex,United Kingdom,BN21 1EU ,01323 462497,chris.pascoe@esfrs.org,South East,Fire Service,PS,,,,,,,,,,,,,,,,,,,,,
265,,Peter,Baldry,,Eastleigh Borough Council,Community Safety Unit,"Civic Offices,  Leigh Road",Eastleigh ,Hampshire,United Kingdom,SO50 9YN ,02380 688149 ,peter.baldry@eastleigh.gov.uk,South East,District,PS,,,,,,,,,,,,,,,,,,,,,
265-001,,Annette,Macnamara,,Eastleigh Borough Council,Community Safety Unit,"Civic Offices,  Leigh Road",Eastleigh,Hampshire,,SO50 9YN,02380 688080,annette.macnamara@eastleigh.gov.uk,South East,District,Add,,,,,,,,,,,,,,,,,,,,,
272,,Katie,Mills,Overview and Scrutiny Co-ordinator,Elmbridge Borough Council,Civic Centre,High Street,Esher,Surrey,United Kingdom,KT10 9SD ,01372 474398,kmills@elmbridge.gov.uk,South East,District,PS,,,,,,,,,,,,,,,,,,,,,
971,,David,Casey,,E-ngage Development Ltd,"Manor House Barn, Church Road",Warboys,Huntingdon,Cambridgeshire,United Kingdom,PE28 2RX,01487 824367,david@e-ngage.net,East of England,Other,Sole,,,,,,,,,,,,,,,,,,,,,
277,Ms,Caroline,Wiggins,Safer Communities Manager,Epping Forest District Council,Civic Offices ,High Street ,Epping ,Essex,United Kingdom,CM16 4BZ ,01992 564122 ,cwiggins@eppingforestdc.gov.uk,East of England,District,PS,,,,,,,,,,,,,,,,,,,,,
278,,Katrina,Best,,Epsom and Ewell Borough Council,Town Hall ,The Parade ,Epsom ,Surrey,United Kingdom,KT18 5BY ,01372 732 133 ,kbest@epsom-ewell.gov.uk,East of England,District,PS,,,,,,,,,,,,,,,,,,,,,
289,,Narinder,Bains,,Fareham Borough Council,PO Box 14 ,Civic Offices  Civic Way ,Fareham ,Hampshire,United Kingdom,PO16 7AZ,01329 824495,nbains@fareham.gov.uk,South East,District,PS,,,,,,,,,,,,,,,,,,,,,
293,Miss,Leona,McGee,Project Officer,Fermanagh District Council,Town Hall ,,Enniskillen,County Fermanagh,United Kingdom,BT74 7BA,028 6632 5050  ,leona.mcgee@fermanagh.gov.uk,Northern Ireland,Unitary,PS,,,,,,,,,,,,,,,,,,,,,
717,Dr,Sian,Jones,Community Safety Officer,Flintshire County Council,Flintshire County Council,County Hall ,Mold,Clwyd,United Kingdom,CH7 6NG,01352 702132,Sian-Jones@flintshire.gov.uk,Wales,Unitary,PS,,,,,,,,,,,,,,,,,,,,,
916,,Lesley-Ann,Keogh,,Forest Heath District Council,College Heath Road ,,Mildenhall ,Suffolk,United Kingdom,IP28 7EY ,01638 719238,lesley-ann.keogh@forest-heath.gov.uk,East of England,District,PS,,,,,,,,,,,,,,,,,,,,,
302,,Debbie,Powell,,Forest of Dean District Council,Council Offices ,High Street ,Coleford ,Gloucestershire,United Kingdom,GL16 8HG ,01594 812613 ,Debbie.Powell@fdean.gov.uk,South West,District,PS,,,,,,,,,,,,,,,,,,,,,
307-001,Ms,Julie,Barlow,Probation Officer,Fylde Borough Council,The Town Hall,St Annes Road West,St Annes,Lancashire,United Kingdom,FY8 1LW,07884 440849,julie.barlow@lancashire.probation.gsi.gov.uk,North West,District,PS,,,,,,,,,,,,,,,,,,,,,
307-002,Cllr,Cheryl,Little,Councillor,Fylde Borough Council,The Town Hall,St Annes Road West,St Annes,Lancashire,United Kingdom,FY8 1LW,01253 711722,cllr.clittle@fylde.gov.uk,North West,District,PS,,,,,,,,,,,,,,,,,,,,,
307-003,Sergeant,Robert,Rushforth,Police Liaison Officer,Fylde Borough Council,The Town Hall,St Annes Road West,St Annes,Lancashire,United Kingdom,FY8 1LW,,robert.rushforth@lancashire.pnn.police.uk,North West,District,PS,,,,,,,,,,,,,,,,,,,,,
307,Mr,Bryan,Ward,Community Safety Manager,Fylde Borough Council,The Town Hall,St Annes Road West,St Annes,Lancashire,United Kingdom,FY8 1LW,01253 658467,Bryanw@fylde.gov.uk,North West,District,PS,,,,,,,,,,,,,,,,,,,,,
308,,Carole,Gibson,,Gateshead Council,Civic Centre ,Regent Street  ,Gateshead  ,Tyne And Wear,United Kingdom,NE8 1HH ,0191 433 2701,carolegibson@gateshead.gov.uk,North East,Unitary,PS,,,,,,,,,,,,,,,,,,,,,
1008,Mr,John,Galbraith,Community Safety Officer,Glasgow Community Safety Services,Westergate,11 Hope Street,Glasgow,Strathclyde,United Kingdom,G2 6AB,0141 276 7750,John.Galbraith@strathclyde.pnn.police.uk,Scotland,Charity,PS,,,,,,,,,,,,,,,,,,,,,
315,Mrs,Pat,Dabbs,Project Development Officer,Gloucester Crime & Disorder Reduction Partnership,Herbert Warehouse,The Docks,Gloucester,Gloucestershire,United Kingdom,GL1 2EQ,01452 396984,pat.dabbs@gloucester.gov.uk,South West,District,PS,,,,,,,,,,,,,,,,,,,,,
319,,Paul,Francis,,Gloucester Police,County Police HQ,No 1 Waterwells ,Gloucester ,Gloucestershire,United Kingdom,GL2 2AN,01452 752152,paul.francis@gloucestershire.police.uk,South West,Police Service,PS,,,,,,,,,,,,,,,,,,,,,
318,,Sarah,Gardner,,Gloucestershire Fire & Rescue Service,Waterwells Drive,Quedgeley,Gloucester,Gloucestershire,United Kingdom,GL2 2AX,01452 753206,sara.gardner@glosfire.gov.uk,South West,Fire Service,PS,,,,,,,,,,,,,,,,,,,,,
324,Mrs,Julie,Petty,,Gosport Borough Council,Community Safety,Town Hall High Street,Gosport,Hampshire,United Kingdom,PO12 1EB,02392 545501,james.o.reilly@gosport.gov.uk,South East,District,PS,,,,,,,,,,,,,,,,,,,,,
321,Mr,Phil,Unsworth,Police Superintendent,Greater Manchester Against Crime,"8th Floor, Oakland House",Talbot Road,Manchester,Greater Manchester,United Kingdom,M16 0PQ,0161 856 2245,philip.unsworth@gmp.police.uk,North West,Police Service,PS,,,,,,,,,,,,,,,,,,,,,
321-001,Ms,Steph,Winstanley,Data & Analysis Development Manager,Greater Manchester Against Crime,"8th Floor, Oakland House",Talbot Road,Manchester,Greater Manchester,United Kingdom,M16 0PQ,0161 856 2914,steph.winstanley@gmp.police.uk,North West,Police Service,PS,,,,,,,,,,,,,,,,,,,,,
340,Mr,Tony,Lander,"Service Support Prevention Manager, Community Fire Safety",Greater Manchester Fire & Rescue Service,146 Bolton Road,,Swinton,Greater Manchester,,M27 8US,0161 608 4221,Landert@manchesterfire.gov.uk,North West,Fire Service,PS,,,,,,,,,,,,,,,,,,,,,
341,,Uzma,Alam,,Greater Manchester Police Authority,Salford Civic Centre ,Chorley Road  Swinton ,Manchester ,Greater Manchester,United Kingdom,M27 5DA ,0161 793 3127 ,uzma.alam@gmpa.gov.uk,North West,Police Authority,PS,,,,,,,,,,,,,,,,,,,,,
341-001,,David,Lancaster,,Greater Manchester Police Authority,Salford Civic Centre,"Chorley Road, Swinton",Manchester,Greater Manchester,,M27 5DA,0161 793 2551,Councillor.lancaster@salford.gov.uk,North West,Police Authority,Add,,,,,,,,,,,,,,,,,,,,,
353,Mrs,Christine,Fields,Senior Community Safety Network,Hambleton District Council,Civic Centre ,Stone Cross ,Northallerton ,North Yorkshire,United Kingdom,DL6 2UU ,01609 767211 ,chris.fields@hambleton.gov.uk,Yorks & Humber,District,PS,,,,,,,,,,,,,,,,,,,,,
356,,Mark,Bell,,Hampshire Constabulary,Newport Police Station,High Street,Newport,Isle of Wight,United Kingdom,PO30 1SZ,01985 38663,mark.bell@hampshire.pnn.police.uk,South East,Police Service,Subscription,,,,,,,,,,,,,,,,,,,,,
357,,Paul,Hayes,,Hampshire County Council,Regulatory Services,Montgomery House Monarch Way,Winchester,Hampshire,United Kingdom,SO22 5PW,01962 833694,paul.hayes@hants.gov.uk,South East,County,PS,,,,,,,,,,,,,,,,,,,,,
360-001,Mr,Dave,Frank,Partnership Manager,Harborough District Council,Wigston Police Station,Bull Street,Leicester,Leicestershire,,LE18 1WX,0116 248 55 80 ,dave.frank@leicestershire.pnn.police.uk,East Midlands,Partnership,Add,,,,,,,,,,,,,,,,,,,,,
360,Mr,Tom,Day,Community Safety and CCTV Manager,Harborough District Council,Council Offices ,Adam & Eve Street,Harborough,Leicestershire,United Kingdom,LE16 7AG,01858 821278,t.day@harborough.gov.uk,East Midlands,Partnership,PS,,,,,,,,,,,,,,,,,,,,,
361,Ms,Julia,Stack,Community Safety & CCTV Manager,Harrogate Borough Council,Department of Community Services,"Springfield House, Kings Road",Harrogate,North Yorkshire,United Kingdom,HG1 5NX,01423 556 632 ,julia.stack@harrogate.gov.uk,Yorks & Humber,District,PS,,,,,,,,,,,,,,,,,,,,,
363,,Brian,Neale,,Hartlepool Borough Council,Community Safety ,8 Church Street ,Hartlepool ,Teesside,United Kingdom,TS24 7DJ ,01429 405577 ,brian.neale@hartlepool.gov.uk,North East,Unitary,PS,,,,,,,,,,,,,,,,,,,,,
678,,Mike,Fagan,,Hastings Borough Council,Safer Hastings Partnership,Police Station Bohemia Road,Hastings ,East Sussex,United Kingdom,TN34 1JJ,01424 451438,mfagan@hastings.gov.uk,South East,District,PS,,,,,,,,,,,,,,,,,,,,,
366,Mrs,Deborah,Houston Macbean,,Havering Community Safety Partnership,1st Floor,Tollgate House 96 Market Place,Romford,,United Kingdom,RM1 3SL ,01708 432028 ,deborah.houstonmacbean@havering.gov.uk,East of England,Unitary,PS,,,,,,,,,,,,,,,,,,,,,
379,,Johnny,Connolly,,Health Research Board,3F Knockmaun House,42-47 Lower Mount Street,Dublin 2,,Ireland,,00353 1676 1176,jconnolly@hrb.ie,Other,Health,PS,,,,,,,,,,,,,,,,,,,,,
370,,Launa,Walker,,Hereford & Worcester Fire & Rescue Service,2 Kings Court,Charles Hastings Way,Worcester,Worcestershire,United Kingdom,WR5 1JR,01905 368227,lwalker@hwfire.org.uk,West Midlands,Fire Service,PS,,,,,,,,,,,,,,,,,,,,,
972,,Janine,Aronoffsky,,HMP Forest Bank,Agecroft Road,Pendlebury,Salford,Greater Manchester,,M27 8FB,0161 925 0033,stephen.taylor@sodexojusticeservices.com ,North West,Other,Subscription,,,,,,,,,,,,,,,,,,,,,
375-001,,Greg,Charman,,Horsham District Council,Park North,North Street,Horsham,West Sussex,,RH12 1RL,01403 215116,greg.charman@horsham.gov.uk,South East,District,PS,,,,,,,,,,,,,,,,,,,,,
375,,Neil ,Worth ,,Horsham District Council,Park North,North Street ,Horsham ,West Sussex,United Kingdom,RH12 1RL,01403 215116 ,neil.worth@horsham.gov.uk,South East,District,Add,,,,,,,,,,,,,,,,,,,,,
388,Ms,Tracy,Harsley,Head of City Safe,Hull City Safe,3rd Floor,Kingston House Bond Street,Hull ,Humberside,United Kingdom,HU1 3ER,01482 612813,julie.franklin@hullcc.gov.uk,North East,Unitary,PS,,,,,,,,,,,,,,,,,,,,,
391,,Claudia,Waters,,Huntingdonshire District Council,Pathfinder House ,Saint Mary,Huntingdon ,Cambridgeshire,United Kingdom,PE29 3TN ,01480 388233 ,claudia.waters@huntsdc.gov.uk,East of England,District,PS,,,,,,,,,,,,,,,,,,,,,
400,Mr,Jim,Manning,Head of Community Safety,Ipswich Borough Council,Grafton House,15-17 Russell Road,Ipswich ,Suffolk,United Kingdom,IP1 2DE ,01473 432702 ,jim.manning@ipswich.gov.uk,East of England,District,PS,,,,,,,,,,,,,,,,,,,,,
274,,Liz,Moss,,Keep Britain Tidy,Elizabeth House,The Pier,Wigan,Lancashire,United Kingdom,WN3 4EX,01942 612621,lyndsey.atherton@keepbritaintidy.org,North West,Other,Associate,,,,,,,,,,,,,,,,,,,,,
413,Mr,Spencer,Goddard,Community Safety Partnership Officer,Kent County Council,Community Safety Unit,1st Floor Invicta House,Maidstone,Kent,United Kingdom,ME14 1XX,01622 221106,spencer.goddard@kent.gov.uk,South East,County,PS,,,,,,,,,,,,,,,,,,,,,
413-001,Mr,Mat,Honeysett,Area Supervisor,Kent County Council,Kent Community Warden Service,39 Grove Hill House,Tunbridge Wells,Kent,United Kingdom,TN1 1EP,07740 184006,mat.honeysett@kent.gov.uk,South East,County,Add,,,,,,,,,,,,,,,,,,,,,
414,,Stuart,Skilton,,Kent Fire & Rescue Service,Straw Mill Hill ,Tovil ,Maidstone,Kent,United Kingdom,ME15 6XB ,01622 692121 ,stuart.skilton@kent.fire-uk.org,South East,Fire Service,PS,,,,,,,,,,,,,,,,,,,,,
416,Mr,John,Nichols,Community Safety Officer,Kettering Community Safety Partnership,Kettering Borough Council,Bowling Green Road,Kettering,Northamptonshire,United Kingdom,NN15 7QX,01536 534378,johnnichols@kettering.gov.uk,East Midlands,District,PS,,,,,,,,,,,,,,,,,,,,,
418,,David,Sykes,,Kirklees Neighbourhood Housing,Perseverance House,St Andrews Road,Huddersfield ,West Yorkshire,United Kingdom,HD1 6RZ,01484 222084,davidg.sykes@kirklees.gov.uk,Yorks & Humber,District,PS,,,,,,,,,,,,,,,,,,,,,
419,,Kevin,Rigby,,Knowsley Borough Council,"5th Floor,  Huyton Municipal Buildings",Huyton,Knowsley,Merseyside,United Kingdom,L36 9YU,0151 443 3181,kevin.rigby@knowsley.gov.uk,North West,Unitary,PS,,,,,,,,,,,,,,,,,,,,,
423,,Tom,Woodcock,,Lancashire Drug Action Team,Preston Business Centre,Rooms 250-252 Watling Street Road,Preston ,Lancashire,United Kingdom,PR2 8DY,01772 647110,tom.woodcock@centrallancashire.nhs.uk,North West,Health,PS,,,,,,,,,,,,,,,,,,,,,
424,Mr,Steve,Morgan,Prevention Manager,Lancashire Fire & Rescue Service,Community Fire Service Headquarters,Garstang Road,Preston ,Lancashire,United Kingdom,PR1 3LH,01772 866879,stevenmorgan@lancsfirerescue.org.uk,North West,Fire Service,PS,,,,,,,,,,,,,,,,,,,,,
424-001,Ms,Rachel,Walker,Community Safety Officer,Lancashire Fire & Rescue Service,Community Fire Service HQ,Garstang Road,Preston,Lancashire,,PR1 3LH,01772 866879,rachelwalker@lancsfirerescue.org.uk,North West,Fire Service,Add,,,,,,,,,,,,,,,,,,,,,
426,,Wendy,Carson,,Larne Borough Council,Smiley Buildings,Victoria Road,Larne,County Antrim,United Kingdom,BT40 1RU,028 2827 2313,carsonw@larne.gov.uk,Northern Ireland,Unitary,PS,,,,,,,,,,,,,,,,,,,,,
428,,Simon,Whitehead,,Leeds City Council,Leeds Community Safety,PO Box 612,Leeds,West Yorkshire,United Kingdom,LS2 7WH,0113 395 0800,simon.whitehead@westyorkshire.pnn.police.uk,Yorks & Humber,Unitary,PS,,,,,,,,,,,,,,,,,,,,,
431,,Kelvin,Bates,,Leicester City Council,10th Floor - Block A ,New Walk Centre  Welford Place ,Leicester ,Leicestershire,United Kingdom,LE1 6ZG ,0116 252 6032,Kelvin.Bates@leicester.gov.uk,East Midlands,Unitary,PS,,,,,,,,,,,,,,,,,,,,,
431-001,,Megan,Jones,,Leicester City Council,10th Floor - Block A ,New Walk Centre  Welford Place ,Leicester ,Leicestershire,United Kingdom,LE1 6ZG ,0116 252 8564,Megan.Jones@leicester.gov.uk,East Midlands,Unitary,Add,,,,,,,,,,,,,,,,,,,,,
981,Ms,Ellis,Mulholland,Project Manager,Leonard Cheshire Disability,5 Boucher Plaza,4-6 Boucher Road,Belfast,County Antrim,,BT12 6HR,02890 246247,eilis.mulholland@lcdisability.org,Northern Ireland,Charity,Lge Charity,,,,,,,,,,,,,,,,,,,,,
459,,Crada,Onuegbu,,Lewisham Council,Mayors Office,Civic Suite,Catford ,London,United Kingdom,SE6 4RU ,0208 314 6023,paula.banks@lewisham.gov.uk,London,Unitary,PS,,,,,,,,,,,,,,,,,,,,,
436,,Jenni,Coleman,,Lichfield District Council,Frog Lane ,,Lichfield ,Staffordshire,United Kingdom,WS13 6ZD ,01543 308005 ,jenni.coleman@lichfielddc.gov.uk,West Midlands,District,PS,,,,,,,,,,,,,,,,,,,,,
437,,Bridget,McCaughan,,Limavady Borough Council,7 Connell Street,,Limavady,County Londonderry,,BT49 0HA,028 777 22226,bridget.mccaughan@limavady.gov.uk,Northern Ireland,Unitary,PS,,,,,,,,,,,,,,,,,,,,,
439-001,Miss,Hazel,Drake,Performance Manager,Z,Witham Park House ,Waterside South ,Lincoln ,Lincolnshire,United Kingdom,LN5 7JN,01522 554556,hazel.drake@lincolnshire.gov.uk,East Midlands,County,Add,,,,,,,,,,,,,,,,,,,,,
439,,Claire,Seabourne,,Lincolnshire County Council,Witham Park House ,Waterside South ,Lincoln ,Lincolnshire,United Kingdom,LN5 7JN,01522 554591,claire.seabourne@lincolnshire.gov.uk,East Midlands,County,PS,,,,,,,,,,,,,,,,,,,,,
447,,Victoria,Ekubia,,London Borough of Barking and Dagenham,Community Safety & Preventative Services Division,3rd Floor Roycroft House 15 Linton Road,Barking,London,United Kingdom,IG11 8HE,020 8227 5699,victoria.ekubia@lbbd.gov.uk,London,Unitary,PS,,,,,,,,,,,,,,,,,,,,,
453,,Andrea,Clemons,,London Borough of Enfield,Community Safety,"B Block North, Civic Centre","Silver Street, Enfield",London,,EN1 3XA,0208 3794085,andrea.clemons@enfield.gov.uk,London,Unitary,PS,,,,,,,,,,,,,,,,,,,,,
455,,Claire,Rai,Head of Operations & Community Safety,London Borough of Hammersmith & Fulham,Safer Communities Division,2nd Floor 77 Glenthorne Road,Hammersmith,London,United Kingdom,W6 OLJ,0208 753 2816,claire.rai@lbhf.gov.uk,London,Unitary,PS,,,,,,,,,,,,,,,,,,,,,
457,,Kirti,Sisodia,,London Borough of Hounslow,Community Partnership Team ,Civic Centre  Lampton Road ,Hounslow ,Middlesex,United Kingdom,TW3 4DN ,0208 583 2464 ,kirti.sisodia@hounslow.gov.uk,London,Unitary,PS,,,,,,,,,,,,,,,,,,,,,
472,,Vicky,Hayes,,Luton Borough Council,Town Hall ,,Luton ,Bedfordshire,United Kingdom,LU1 2BQ ,01582 556629 ,vicky.hayes@luton.gov.uk,East of England,District,PS,,,,,,,,,,,,,,,,,,,,,
472-001,,Nicola,Perry,,Luton Borough Council,Town Hall,,Luton,Bedfordshire,,LU1 2BQ,01582 556629,nicola.perry@luton.gov.uk,East of England,District,Add,,,,,,,,,,,,,,,,,,,,,
475,,Michael,McCrory,,Magherafelt District Council,50 Ballyronan Road ,,Magherafelt ,County Londonderry,United Kingdom,BT45 6EN ,02879-397979 ,michael.mccrory@magherafelt.org,Northern Ireland,Unitary,PS,,,,,,,,,,,,,,,,,,,,,
477,,David,Hewetson,,Maidstone Borough Council,Directorate of Community Services ,13 Tonbridge Rd  ,Maidstone,Kent,United Kingdom,ME16 8HG ,01622 602475,davidhewetson@maidstone.gov.uk,South East,District,PS,,,,,,,,,,,,,,,,,,,,,
488-001,,Vikram,Sahdev,,Medway Council,Gun Wharf,Dock Road,Chatham,Kent,,ME4 4TR,0793 946 4478,vikram.sahdev@medway.gov.uk,South East,Unitary,Add,,,,,,,,,,,,,,,,,,,,,
488,,Gavin,Stedman,,Medway Council,Safer Communities Frontline Services,Dock Road,Chatham,Kent,United Kingdom,ME4 4TR,01634 338161,gavin.stedman@medway.gov.uk,South East,Unitary,PS,,,,,,,,,,,,,,,,,,,,,
964,,Jenny,Davies,,Mendip District Council,Cannards Grave Road,,Shepton Mallet,Somerset,,BA4 5BT,01749 341562,daviesj@mendip.gov.uk,South West,District,PS,,,,,,,,,,,,,,,,,,,,,
490,,Mark,Broderick,,Merseyside Fire & Rescue Service,Service HQ ,Bridle Road ,Bootle,Merseyside,United Kingdom,L30 4YD ,0151 296 4105,markbroderick@merseyfire.gov.uk,North West,Fire Service,PS,,,,,,,,,,,,,,,,,,,,,
492,,Natasha,Plummer,,Metropolitan Police Authority,10 Dean Farrar Street ,,London,,United Kingdom,SW1H ONY ,0207 202 0131,natasha.plummer@mpa.gov.uk,London,Police Authority,PS,,,,,,,,,,,,,,,,,,,,,
498-001,,Wyn,Cornelius,,Mid & West Wales Fire & Rescue Service,Community Risk Reduction HQ,Sway Road Morriston,Swansea,Wales,United Kingdom,SA6 6JA,08706 060699,j.fitzjohn@mawwfire.gov.uk,Wales,Fire Service,Add,,,,,,,,,,,,,,,,,,,,,
498,,Christopher,Davies,,Mid & West Wales Fire & Rescue Service,Community Risk Reduction HQ,Sway Road Morriston,Swansea,Wales,United Kingdom,SA6 6JA,01792 776706,c.davies@mawwfire.gov.uk,Wales,Fire Service,PS,,,,,,,,,,,,,,,,,,,,,
498-003,Mr,Michael,Higgins,Partnerships Officer,Mid & West Wales Fire & Rescue Service,Community Risk Reduction HQ,Sway Road Morriston,Swansea,Wales,United Kingdom,SA6 6JA,01792 705076,m.higgins@mawwfire.gov.uk,Wales,Fire Service,Add,,,,,,,,,,,,,,,,,,,,,
941,,John,Spitzer,Community Safety Manager,Mid Suffolk District Council,Council Offices,131 High Street,Needham Market,Suffolk,,IP6 8DL,01449 724646,john.spitzer@midsuffolk.gov.uk,East of England,District,PS,,,,,,,,,,,,,,,,,,,,,
310,,Bob,Green,,Morpho Detection (UK) Ltd,Station Road ,Great Shelford ,Cambridge ,Cambridgeshire,United Kingdom,CB2 5LT ,01223 728888 ,robert.green@morpho.com,East of England,Other,Commercial,,,,,,,,,,,,,,,,,,,,,
529,,Janet,Caton,,National Policing Improvement Agency,Yew Tree Lane,Pannall Ash,Harrogate,North Yorkshire,United Kingdom,HG2 9JZ,01423 876553,janet.caton@npia.pnn.police.uk,Yorks & Humber,Government,PS,,,,,,,,,,,,,,,,,,,,,
535,Ms,Stephanie,Bennett,Community Safety Co-ordinator ,New Forest District Council,Appletree Court ,Beaulieu Road,Lyndhurst,Hampshire,United Kingdom,SO43 7PA ,02380 285148 ,stephanie.bennett@nfdc.gov.uk,South East,District,PS,,,,,,,,,,,,,,,,,,,,,
535-001,Ms,Annie,Righton,Head of Public Health & Community Safety,New Forest District Council,Appletree Court,Beaulieu Road,Lyndhurst,Hampshire,United Kingdom,SO43 7PA,02380 285114,annie.righton@nfdc.gov.uk,South East,District,Add,,,,,,,,,,,,,,,,,,,,,
538,,Robyn,Thomas,,Newcastle City Council,Community Safety Unit,Room 34 Civic Centre ,Newcastle,Tyne And Wear,United Kingdom,NE1 8PR ,0191 277 7835 ,robyn.thomas@newcastle.gov.uk,North East,District,PS,,,,,,,,,,,,,,,,,,,,,
541-001,,Ciara,Loye,,Newry & Mourne City Council,District Council Offices,Monaghan Row,Newry,County Down,,BT35 8DJ,028 3031 3031,ciara.loye@newryandmourne.gov.uk,Northern Ireland,Unitary,Add,,,,,,,,,,,,,,,,,,,,,
541,,Heather,McKee,,Newry & Mourne City Council,District Council Offices,Monaghan Row,Newry,County Down,United Kingdom,BT35 8DJ,028 3031 3031,heather.mckee@newryandmourne.gov.uk,Northern Ireland,Unitary,PS,,,,,,,,,,,,,,,,,,,,,
264,Ms,Diane,Lee,Substance Misuse Strategy Co-ordinator,NHS Wakefield,International House,"Waldorf Way, off Turner Way",Wakefield,West Yorkshire,United Kingdom,WF2 8EF,01924 315756,diane.lee@wdpct.nhs.uk,Yorks & Humber,Health,PS,,,,,,,,,,,,,,,,,,,,,
543,,Nicola,Hughes,,Nicola Hughes Consulting,33 Hastings Road,Millhouses,Sheffield,South Yorkshire,United Kingdom,S7 2GT,07791 520586,nicola@nicolahughesconsulting.co.uk,Yorks & Humber,Other,Subscription,,,,,,,,,,,,,,,,,,,,,
548,Mr,Peter,Burnham,Head of Community Safety,Norfolk Community Safety,Police Operation Command Centre,Falconers Chase,Wymondham,Norfolk,United Kingdom,NR18 0WW ,07795 343109,burnhamp@norfolk.pnn.police.uk,East of England,County,PS,,,,,,,,,,,,,,,,,,,,,
545,,Mike,Fawcett,,Norfolk Constabulary,"Partnerships Department, Room 1.2.54a",Jubilee House  Falconers Chase ,Wymondham,Norfolk,United Kingdom,NR18 0WW ,01953 424922,fawcettm@norfolk.pnn.police.uk,East of England,Police Service,PS,,,,,,,,,,,,,,,,,,,,,
553,,Derek,Hardy,Policy Manager (Housing & Community Safety) ,North Dorset District Council,Nordon, Salisbury Road ,Blandford Forum,Dorset,United Kingdom,DT11 7LL ,01258 484041 ,dhardy@north-dorset.gov.uk,South West,District,PS,,,,,,,,,,,,,,,,,,,,,
554,,Martin,Magee,,North Down Borough Council,The Castle,,Bangor,County Down,,BT20 4BT,02891 278070,martin.magee@northdown.gov.uk,Northern Ireland,Unitary,PS,,,,,,,,,,,,,,,,,,,,,
558-002,Mr,Nick,Richards,,North Lincolnshire Safer Neighbourhoods,Shelford House,Shelford Street,Scunthorpe,Lincolnshire,United Kingdom,DN15 6QB ,01724 272281,nick.richards@northlincs.gov.uk,East Midlands,District,Add,,,,,,,,,,,,,,,,,,,,,
558,Mr,Ian,Welch,Community Safety Manager,North Lincolnshire Safer Neighbourhoods,Shelford House,Shelford Street,Scunthorpe,Lincolnshire,United Kingdom,DN15 6QB ,01724 275327,ian.welch@northlincs.gov.uk,East Midlands,District,PS,,,,,,,,,,,,,,,,,,,,,
558-001,Miss,Michelle,Wilcock,Anti Social Behaviour Strategy Manager,North Lincolnshire Safer Neighbourhoods,Shelford House,Shelford Street,Scunthorpe,Lincolnshire,United Kingdom,DN15 6QB ,01724 275327,michelle.wilcock@northlincs.gov.uk,East Midlands,District,Add,,,,,,,,,,,,,,,,,,,,,
560,,Amy,Hurst,,North Somerset Council,59-61 Oxford Street,,Weston Super Mare,Somerset,United Kingdom,BS23 1TR,01934 426494,amy.hurst@n-somerset.gov.uk,South West,Unitary,PS,,,,,,,,,,,,,,,,,,,,,
566,,Robert,Beggs,,North Warwickshire Borough Council,The Council House ,South Street ,Atherstone,West Midlands,United Kingdom,CV9 1BD ,01827 719238 ,robertbeggs@northwarks.gov.uk,West Midlands,District,PS,,,,,,,,,,,,,,,,,,,,,
567,Ms,Gillian,Haluch,Community Safety Officer,North West Leicestershire District Council,Council Offices,,Coalville,Leicestershire,United Kingdom,LE67 3FJ,01530 454490,gillian.haluch@nwleicestershire.gov.uk,East Midlands,District,PS,,,,,,,,,,,,,,,,,,,,,
569,,Lesley,Dale,,North Yorkshire County Council,Policy & Partnerships Unit, Room 36 County Hall,Northallerton,North Yorkshire,,DL7 8AD,01609 533487,lesley.dale@northyorks.gov.uk,Yorks & Humber,County,PS,,,,,,,,,,,,,,,,,,,,,
570,,Bob,Hoskins,,North Yorkshire Fire & Rescue Service,Brigade HQ ,Community Risk Team Thurston Road,Northallerton ,North Yorkshire,United Kingdom,DL6 2ND,01609 780150 ,bob.hoskins@northyorksfire.gov.uk,Yorks & Humber,Fire Service,PS,,,,,,,,,,,,,,,,,,,,,
320,,Bob,Mowat,,North Yorkshire Police,"SNAPD Team, Police HQ",Newby Wiske,Northallerton,North Yorkshire,,DL7 9HA,01609 789 331,Bob.mowat@northyorkshire.pnn.police.uk,Yorks & Humber,Police Service,PS,,,,,,,,,,,,,,,,,,,,,
573-001,,Bill,Edwards,,Northampton Borough Council,Northampton Borough Council ,14 Fish Street,Northampton ,Northamptonshire,United Kingdom,NN1 2AA,01604 838986,bedwards@northampton.gov.uk,East Midlands,District,Add,,,,,,,,,,,,,,,,,,,,,
573,,Debbie,Ferguson,,Northampton Borough Council,Northampton Borough Council ,The Guildhall  St Giles Square ,Northampton ,Northamptonshire,United Kingdom,NN1 1DA ,01604 838731,dferguson@northampton.gov.uk,East Midlands,District,PS,,,,,,,,,,,,,,,,,,,,,
573-002,,Nicci,Marzec,,Northampton Borough Council,The Guildhall,St Giles Square,Northampton,Northamptonshire,,NN1 1DA,01604 837431,nmarzec@northampton.gov.uk,East Midlands,District,Add,,,,,,,,,,,,,,,,,,,,,
577,,Jane,Taylor,,Northamptonshire County Council,PO Box 93 ,County Hall ,Northampton ,Northamptonshire,United Kingdom,NN1 1AN ,01604 236046 ,jataylor@northamptonshire.gov.uk,East Midlands,County,PS,,,,,,,,,,,,,,,,,,,,,
581,Mr,Peter,Craig,Chief Fire Officer,Northern Ireland Fire & Rescue Service,1 Seymour Street ,,Lisburn,County Antrim,United Kingdom,BT27 4SX ,028 9266 4221 ,peter.craig@nifrs.org,Northern Ireland,Fire Service,PS,,,,,,,,,,,,,,,,,,,,,
582,,Frank,Mulhern,,Northern Ireland Housing Association,The Housing Centre ,2 Adelaide Street ,Belfast ,County Antrim,United Kingdom,BT2 8PB ,02890 240588 ,frank.mulhern@nihe.gov.uk,Northern Ireland,Other,PS,,,,,,,,,,,,,,,,,,,,,
585,,Ian,Billham,,Northumberland County Council,Chief Executives Directorate ,County Hall ,Morpeth,Northumberland,United Kingdom,NE61 2EF ,01670 542227,ibillham@northumberland.gov.uk,North East,County,PS,,,,,,,,,,,,,,,,,,,,,
585-001,Mr,John,Gray MINJP,Policy & Partnership Co-ordinator,Northumberland County Council,Cramlington Information Centre,Forum Way,Cramlington,Northumberland,United Kingdom,NE23 6YB,01670 542342,john.gray@northumberland.gcsx.gov.uk,North East,County,Add,,,,,,,,,,,,,,,,,,,,,
,,,,,,,,,,,,,,,,,,,,,,,,,,,,,,,,,,,,,
594,,Mary,McEvoy,Head of Community Safety,Nottinghamshire Fire & Rescue Service,Bestwood Lodge ,,Arnold ,Nottinghamshire,United Kingdom,NG5 8PD ,0115 9670880 ,mary.mcevoy@notts-fire.gov.uk,East Midlands,Fire Service,PS,,,,,,,,,,,,,,,,,,,,,
596,,Colin,Handley,,Nottinghamshire Police Authority,County Hall,,West Bridgford,Nottinghamshire,,NG2 7QP†,0115 977 2958,colin.handley@nottinghamshire.pnn.police.uk,East Midlands,Police Service,Add,,,,,,,,,,,,,,,,,,,,,
601,,Anna,Forster,Development Officer,Oldham Metropolitan Borough Council,Room 441 Civic Centre,West Street,Oldham,Lancashire,United Kingdom,OL1 1UL,0161 770 4150,anna.forster@oldham.gov.uk,North West,Unitary,PS,,,,,,,,,,,,,,,,,,,,,
601-001,Ms,Lorraine,Kenny,ASB Team Leader,Oldham Metropolitan Borough Council,Level 11 Oldham Civic Centre,West Street,Oldham,Lancashire,United Kingdom,OL1 1UL,0161 770 1582,lorraine.kenny@oldham.gov.uk,North West,Unitary,Add,,,,,,,,,,,,,,,,,,,,,
603,,Sandra,Armstrong,,Omagh District Council,The Grange,Mountjoy Road,Omagh,County Tyrone,United Kingdom,BT79 7BL,028 8224 5321,sandra.armstrong@omagh.gov.uk,Northern Ireland,Unitary,PS,,,,,,,,,,,,,,,,,,,,,
606-001,Ms,Judith,Johnson,Community Safety Officer,Oxfordshire County Council,Safer Communities Unit,Community Safety Directorate Rewley Road,Oxford,Oxfordshire,United Kingdom,OX1 2EH,07979 240043,judith.johnson@oxfordshire.gov.uk,South East,County,PS,,,,,,,,,,,,,,,,,,,,,
606,,Ruth,Whyte,,Oxfordshire County Council,Safer Communities Unit,Community Safety Directorate Rewley Road,Oxford,Oxfordshire,United Kingdom,OX1 2EH,01865 258516,ruth.whyte@oxfordshire.gov.uk,South East,County,PS,,,,,,,,,,,,,,,,,,,,,
990,Mrs,Jane,Rose,Partnership Advisor,Partnership Development Services,14 The Willows,Lower Bullingham,Hereford ,Herefordshire,United Kingdom,HR2 6DP,07858 961311,janerose@partnershipdevelopmentservices.co.uk,West Midlands,Other,Sole,,,,,,,,,,,,,,,,,,,,,
610,,Alison,Rogers,,Pembrokeshire County Council,43 Merlin's Hill,,Haverfordwest,Wales,United Kingdom,SA61 1PF,01437 769669,alison.rogers@pembrokeshire.gov.uk,Wales,Unitary,PS,,,,,,,,,,,,,,,,,,,,,
611,,Geoff,Whitehead,,Pendle Borough Council,Town Hall,Market Street ,Nelson,Lancashire,United Kingdom,BB9 7LG,01282 661660,geoff.whitehead@pendle.gov.uk,North West,District,PS,,,,,,,,,,,,,,,,,,,,,
627,Mr,Gordon,McKay,,Perth and Kinross Council,2 High Street,,Perth,Tayside,United Kingdom,PH1 5PH,,GRMcKay@pkc.gov.uk,Scotland,District,PS,,,,,,,,,,,,,,,,,,,,,
618,Mrs,Sarah,Hopkins,Community Safety Partnership Manager,Plymouth Community Safety Partnership,Plymouth City Council,"Floor 8, North End Civic Centre",Plymouth,Devon,,PL1 2AA,01752 305408,sarah.hopkins@plymouth.gov.uk,South West,District,PS,,,,,,,,,,,,,,,,,,,,,
987,,Joe,Reader,,Precise Media,The Registry,3 Royal Mint Court,London,,,EC3N 4QN,0207 264 4733,joe.reader@precise.co.uk,London,Other,Subscription,,,,,,,,,,,,,,,,,,,,,
637,Mr,Maurice,Wilsdon,Head of National Programmes,Rail Safety & Standards Board,Block 2 Angel Square,1 Torrens Street,London,,,EC1V 1NY,020 3142 5370,maurice.wilsdon@rssb.co.uk,London,Other,PS,,,,,,,,,,,,,,,,,,,,,
645,,Angie,Heighway,,Redditch Borough Council,Alcester Street ,,Redditch,Worcestershire,United Kingdom,B98 8AH ,01527 534068 ,angela.heighway@redditchbc.gov.uk,West Midlands,District,PS,,,,,,,,,,,,,,,,,,,,,
646,,Debbie,Stitt,,Reigate & Banstead Borough Council,Town Hall,,Reigate,Surrey,United Kingdom,RH2 0SH,01737 276305,debbie.stitt@reigate-banstead.gov.uk,South East,District,PS,,,,,,,,,,,,,,,,,,,,,
649,,Phil,Bevan,,Rhondda Cynon Taf County Borough Council,Community Safety Department ,"The Safety Zone, Unit B7 Treforest Industrial Estate ",Pontypridd,Wales,United Kingdom,CF37 5TF,01443 843636 ,phil.bevan@rhondda-cynon-taf.gov.uk,Wales,Unitary,PS,,,,,,,,,,,,,,,,,,,,,
654,,Amanda,Coates,,Richmondshire Community Safety Partnership,Richmondshire District Council,Swale House Frenchgate,Richmond,North Yorkshire,United Kingdom,DL10 4JE,01748 827177,amanda.coates@richmondshire.gov.uk,Yorks & Humber,District,Add,,,,,,,,,,,,,,,,,,,,,
654-001,,Katherine,Davies,,Richmondshire Community Safety Partnership,Richmondshire District Council,Swale House Frenchgate,Richmond,North Yorkshire,United Kingdom,DL10 4JE,01748 829100 x ,kate.davies@richmondshire.gov.uk,Yorks & Humber,District,PS,,,,,,,,,,,,,,,,,,,,,
654-002,,Pat,Wilson,,Richmondshire Community Safety Partnership,Richmondshire District Council,Swale House Frenchgate,Richmond,North Yorkshire,United Kingdom,DL10 4JE,01748 827176,pat.wilson@richmondshire.gov.uk,Yorks & Humber,District,Add,,,,,,,,,,,,,,,,,,,,,
988,,Robert,Greaves,,Robert Greaves,41 The Avenue,,Fareham,0,,PO14 1PF,,robertagreaves@fsmail.net,South East,Other,Add,,,,,,,,,,,,,,,,,,,,,
658,Mrs,Melanie,Yolland,Community Safety Co-ordinator ,Rochford District Council,Council Offices, South Street,Rochford,Essex,,SS4 1BW,01702 318104,melanie.yolland@rochford.gov.uk,East of England,District,PS,,,,,,,,,,,,,,,,,,,,,
666,Mrs,Wendy,Roberts,Community Safety Manager,Runnymede Borough Council,Technical Services Dept. ,Civic Offices  Station Road ,Addlestone,Surrey,United Kingdom,KT15 2AH ,01932 425065,wendy.roberts@runnymede.gov.uk,South East,District,PS,,,,,,,,,,,,,,,,,,,,,
667,,Katherine,Marriott,,Rushcliffe Borough Council,Civic Centre ,Pavillion Road ,West Bridgford ,Nottinghamshire,United Kingdom,NG2 5FE ,0115 9148 320 ,kmarriott@rushcliffe.gov.uk,East Midlands,District,PS,,,,,,,,,,,,,,,,,,,,,
668,,Phil,Stoneman,,Rushmoor Borough Council,Council Offices ,Farnborough Road ,Farnborough,Hampshire,United Kingdom,GU14 7JU ,01252 398760,phil.stoneman@rushmoor.gov.uk,South East,District,PS,,,,,,,,,,,,,,,,,,,,,
671,,John,Bentley,,Safe in Tees Valley Ltd,"1st Floor, Hampdon House",Falcon Close  Westland Way,Stockton-on-Tees,Teesside,,TS18 3TS,,info@safeinteesvalley.org,North East,Partnership,PS,,,,,,,,,,,,,,,,,,,,,
672,,Andrea,Preece,,Safe Partnership Ltd,3 East Street,,Wareham,Dorset,United Kingdom,BH20 4NN,0845 230 9090,andrea@safepartnership.org,South West,Partnership,PS,,,,,,,,,,,,,,,,,,,,,
63,,Natasha,Bhandal,,Safer Birmingham Partnership,9th Floor,1 Victoria Square,Birmingham ,West Midlands,United Kingdom,B1 1BD,0121 303 3160 ,natasha.bhandal@birmingham.gov.uk,West Midlands,Partnership,PS,,,,,,,,,,,,,,,,,,,,,
63-001,,Stuart,Reynolds,,Safer Birmingham Partnership,14 Richmond Avenue,Finchfield,Wolverhampton,West Midlands,United Kingdom,WV3 9JB,0121 675 8783,stuart.reynolds@birmingham.gov.uk,West Midlands,Partnership,Add,,,,,,,,,,,,,,,,,,,,,
676,,Mandy,Chance,,Safer Communities Partnership,Development Unit Regeneration Services ,Town Hall  St Nicholas Street ,Scarborough,North Yorkshire,United Kingdom,YO11 2HG ,01723 383626,mandy.chance@scarborough.gov.uk,Yorks & Humber,Partnership,PS,,,,,,,,,,,,,,,,,,,,,
674,Mrs,Kirsty,Mooney,Community Safety Manager,Safer Communities Torbay,2nd Floor,Paignton Police Station PO Box 1,Paignton,Devon,United Kingdom,TQ3 2YF,01803 841274,kirsty.mooney@torbay.gov.uk,South West,Partnership,PS,,,,,,,,,,,,,,,,,,,,,
352-001,,Mike,Andrews,,Safer Halton Partnership,Unit 10 Turnstone Business Park,Mulberry Avenue,Widnes,Cheshire,,WA8 0WN,0151 495 5824,mike.andrews@halton.gov.uk,North West,Partnership,Add,,,,,,,,,,,,,,,,,,,,,
352,Inspector,David,Gordon,Community Safety Officer,Safer Halton Partnership,Unit 10 Turnstone Business Park,Mulberry Avenue,Widnes ,Cheshire,United Kingdom,WA8 0WN,0151 495 5810,david.gordon@cheshire.pnn.police.uk,North West,Partnership,PS,,,,,,,,,,,,,,,,,,,,,
443,,Jacqueline,Crockett,,Safer Lisburn Community Safety Partnership,40 Bachelors Walk,,Lisburn,County Antrim,,BT28 1XN,02892 629060,info@saferlisburn.org,Northern Ireland,Unitary,PS,,,,,,,,,,,,,,,,,,,,,
443-001,,William,Johnston,,Safer Lisburn Community Safety Partnership,40 Bachelors Walk,,Lisburn,County Antrim,,BT28 1XN,02892 629060,info@saferlisburn.org,Northern Ireland,Unitary,Add,,,,,,,,,,,,,,,,,,,,,
443-002,,Laurence,Kerr,,Safer Lisburn Community Safety Partnership,40 Bachelors Walk,,Lisburn,County Antrim,,BT28 1XN,02892 629060,info@saferlisburn.org,Northern Ireland,Unitary,Add,,,,,,,,,,,,,,,,,,,,,
502,,Richard,Solly,,Safer MK,599 Avebury Boulevard,,Milton Keynes,Buckinghamshire,United Kingdom,MK9 3HR,01908 254429,richard.solly@milton-keynes.gov.uk,South East,Partnership,PS,,,,,,,,,,,,,,,,,,,,,
624-001,Ms,Vikki,Howe,Principal Analyst - Community Safety,Safer Poole Partnership,Strategic Planning Services,Civic Centre ,Poole,Dorset,United Kingdom,BH15 2RU ,01202 223339,v.howe@poole.gov.uk,South West,District,Add,,,,,,,,,,,,,,,,,,,,,
624,Mrs,Anthi,Minhinnick,Community Safety Manager,Safer Poole Partnership,Strategic Planning Services,Civic Centre ,Poole,Dorset,United Kingdom,BH15 2RU ,01202 223320,a.minhinnick@poole.gov.uk,South West,District,PS,,,,,,,,,,,,,,,,,,,,,
683,,Jo,Reilly,,Safer Ryedale,Ryedale District Council,Ryedale House,Malton,North Yorkshire,United Kingdom,YO17 7HH,01653 600666,jo.reilly@ryedale.gov.uk,South West,Partnership,PS,,,,,,,,,,,,,,,,,,,,,
684,,Olwen,Kelly,,Safer South Gloucestershire,Community Safety And Drug Action Partnership,Severn House Lime Kiln Close ,Stoke Gifford,Gloucestershire,United Kingdom,BS34 8SR,01454 868586,olwen.kelly@southglos.gov.uk,South West,Partnership,PS,,,,,,,,,,,,,,,,,,,,,
673,,Barbara,Natasegara,,Safer Wales,4th Floor East,113-116 Bute Street Butetown,Cardiff,Wales,United Kingdom,CF10 5EQ,02920 461564,bn@saferwales.com,Wales,Charity,Small Charity,,,,,,,,,,,,,,,,,,,,,
899,Ms,Jude,Langton,,Safer Worcester,Community Safety,Orchard House Farrier Street,Worcester,Worcestershire,United Kingdom,WR1 3BB,01905 722321,jlangton@worcester.gov.uk,West Midlands,Partnership,PS,,,,,,,,,,,,,,,,,,,,,
689-001,,Joanne,Beilby,,Safer York Partnership,City of York Council,Clifford Street Police Station Lower Friargate,York,North Yorkshire,United Kingdom,YO1 9SL,01904 669069,joanne.beilby@northyorkshire.pnn.police.uk,Yorks & Humber,Partnership,Add,,,,,,,,,,,,,,,,,,,,,
689-002,,Amy,Fenwick,,Safer York Partnership,City of York Council,Clifford Street Police Station Lower Friargate,York,North Yorkshire,United Kingdom,YO1 9SL,01904 669069,amy.fenwick@northyorkshire.pnn.police.uk,Yorks & Humber,Partnership,Add,,,,,,,,,,,,,,,,,,,,,
689-003,,Mark,Henderson,,Safer York Partnership,City of York Council,Clifford Street Police Station Lower Friargate,York,North Yorkshire,United Kingdom,YO1 9SL,0845 606 0247,mark.henderson@northyorkshire.pnn.police.uk,Yorks & Humber,Partnership,Add,,,,,,,,,,,,,,,,,,,,,
689-004,,Tanya,Lyon,,Safer York Partnership,City of York Council,Clifford Street Police Station Lower Friargate,York,North Yorkshire,United Kingdom,YO1 9SL,01904 669078,tanya.lyon@northyorkshire.pnn.police.uk,Yorks & Humber,Partnership,Add,,,,,,,,,,,,,,,,,,,,,
689,,Jane,Mowat,,Safer York Partnership,City of York Council,Clifford Street Police Station  Lower Friargate ,York  ,North Yorkshire,United Kingdom,Y01 9SL ,01904 669069,jane.mowat@northyorkshire.pnn.police.uk,Yorks & Humber,Partnership,PS,,,,,,,,,,,,,,,,,,,,,
689-005,,Pam,Tinker,,Safer York Partnership,City of York Council,Clifford Street Police Station Lower Friargate,York,North Yorkshire,United Kingdom,YO1 9SL,01904 669069,pam.tinker@northyorkshire.pnn.police.uk,Yorks & Humber,Partnership,Add,,,,,,,,,,,,,,,,,,,,,
689-006,,Alison,Newbould,ASB Co-ordinator,Safer York Partnership,York Centre for Safer Communities,Lower Friargate,York,North Yorkshire,United Kingdom,YO1 9SL,01904 669073,Alison.Newbould@northyorkshire.pnn.police.uk,Yorks & Humber,Partnership,Add,,,,,,,,,,,,,,,,,,,,,
986,,Jon,Kennett,,Safety Net Associates,University of Kent,Suite 35-86 The Innovation Centre,"University Road, Canterbury",Kent,,CT2 7FG,0845 299 7144,jon.kennett@safetynetassociates.co.uk,South East,Other,Commercial,,,,,,,,,,,,,,,,,,,,,
691-001,,Geoff,Akroyd,,Salford Community Safety Unit,"Elmstead House, 143 Partington Lane",Swinton, Manchester,Greater Manchester,,M27 0SS,0161 609 0220,don.brown@salford.gov.uk,North West,Unitary,Add,,,,,,,,,,,,,,,,,,,,,
691,,Don,Brown,,Salford Community Safety Unit,Elmstead House ,143 Partington Lane ,Swinton ,Greater Manchester,United Kingdom,M27 0SS ,0161 793 3576 ,don.brown@salford.gov.uk,North West,Unitary,PS,,,,,,,,,,,,,,,,,,,,,
691-002,,Kevin,Mulligan,,Salford Community Safety Unit,Elmstead House,143 Partington Lane,Swinton,Greater Manchester,,M27 0SS,0161 856 5400,kevin.mulligan@gmp.police.uk,North West,Unitary,Add,,,,,,,,,,,,,,,,,,,,,
703,Mr,Paul,Kirkham,Community Safety Partnership Manager,Selby District Council,Civic Centre,Doncaster Road,Selby,North Yorkshire,United Kingdom,YO8 9FT,01757 241015,pkirkham@selby.gov.uk,Yorks & Humber,District,PS,,,,,,,,,,,,,,,,,,,,,
704,,Jason,Brown,,Selectamark Security Systems plc,1 Locks Court,429 Crofton Road,Locksbottom,Kent,United Kingdom,BR6 8NL,01689 860757,jason.brown@selectamark.co.uk,South East,Other,Commercial,,,,,,,,,,,,,,,,,,,,,
928,,Simon,Harding,,Simon Harding Crime Consultants,13 Kneller Road,Brockley,London,London,United Kingdom,SE4 2AR,0208 691 4185,simonkharding@btinternet.com,London,Other,Sole,,,,,,,,,,,,,,,,,,,,,
724,,Gillian,Magee,,Solihull Metropolitan Borough Council,The Council House ,PO Box 1833,Solihull,West Midlands,United Kingdom,B91 3DZ,0121 704 8093 ,gmagee@solihull.gov.uk,West Midlands,District,PS,,,,,,,,,,,,,,,,,,,,,
725,,Lisa,Bartoletti,Business Development Manager,Solon Security Limited,Unit 40,Manor Industrial Estate,Flint,Clwyd,,CH6 5UY,01352 762266,lisa@solonsecurity.co.uk,North West,Other,Commercial,,,,,,,,,,,,,,,,,,,,,
727,Miss,Lucy,Macready,Community Safety Officer,Somerset County Council,Safer Communities,County Hall ,Taunton ,Somerset,United Kingdom,TA1 4DY ,01823 357114,lmacready@somerset.gov.uk,South West,County,PS,,,,,,,,,,,,,,,,,,,,,
730,Mr,Nathan,March,Community Safety Manager,South Bucks District Council,Capswood,Oxford Road ,Denham,Buckinghamshire,United Kingdom,UB9 4LH,01895 837365,nathan.march@southbucks.gov.uk,South East,District,PS,,,,,,,,,,,,,,,,,,,,,
735-001,Mrs,Yvonne,Ancliffe,Anti Social Behaviour Co-ordinator,South Kesteven District Council,Council Offices,St Peter's Hill,Grantham,Lincolnshire,United Kingdom,NG31 6PZ,01476 406507,y.ancliffe@southkesteven.gov.uk,East Midlands,District,Add,,,,,,,,,,,,,,,,,,,,,
735-002,,Mark,Jones,,South Kesteven District Council,Council Offices,St Peter,Grantham,Lincolnshire,,NG31 6PZ,01476 406421,m.jones@southkesteven.gov.uk,East Midlands,District,Add,,,,,,,,,,,,,,,,,,,,,
735,Mr,Sandy,Kavanagh,Community Safety Officer,South Kesteven District Council,Community Safety Team,Council Offices St. Peter's Hill,Grantham,Lincolnshire,United Kingdom,NG31 6PZ,01476 406107,s.kavanagh@southkesteven.gov.uk,East Midlands,District,PS,,,,,,,,,,,,,,,,,,,,,
735-003,Miss,Mel,Sinnott,Anti-Social Behavior Coordinator,South Kesteven District Council,Council Offices,St Peter's Hill,Grantham,Lincolnshire,,NG31 6PZ,01476 406567,m.sinnott@southkesteven.gov.uk,East Midlands,District,Add,,,,,,,,,,,,,,,,,,,,,
738,,Steve,Brewer,,South Somerset District Council,Brympton Way ,,Yeovil,Somerset,United Kingdom,BA20 2HT ,01935 462390 ,steve.brewer@southsomerset.gov.uk,South West,District,PS,,,,,,,,,,,,,,,,,,,,,
739-002,,Helen,Marshall,,South Staffordshire Council,Council Offices,Wolverhampton Road,Codsall,West Midlands,,WV8 1PX,01902 696530,h.marshall@sstaffs.gov.uk,West Midlands,District,Add,,,,,,,,,,,,,,,,,,,,,
739,,Clodagh,Peterson,,South Staffordshire Council,Council Offices,Wolverhampton Road,Codsall,Staffordshire,United Kingdom,WV8 1PX,01902 696424,c.peterson@sstaffs.gov.uk,West Midlands,District,PS,,,,,,,,,,,,,,,,,,,,,
739-001,,Maggie,Quinn,Partnerships Locality Manager,South Staffordshire Council,Council Offices,Wolverhampton Road,Codsall,West Midlands,,WV8 1PX,01902 696530,m.quinn@sstaffs.gov.uk,West Midlands,District,Add,,,,,,,,,,,,,,,,,,,,,
740,Ms,Janice,Chandler,Joint Commissioning Manager,South Tyneside Substance Misuse Commissioning,South Tyneside Primary Care Trust,17 Beach Road,South Shields,Tyne And Wear,United Kingdom,NE33 2QA,0191 496 7963 ,janice.chandler@sotw.nhs.uk,North East,Health,PS,,,,,,,,,,,,,,,,,,,,,
743-002,,Neil,Brown,,South Wales Fire & Rescue Service,Fire Service Headquarters,Lanelay Hall,Pontyclun,Mid Glamorgan,United Kingdom,CF72 9XA,01443 232000,na-brown@southwales-fire.gov.uk,Wales,Fire Service,PS,,,,,,,,,,,,,,,,,,,,,
743-001,,Mick,Flanagan,,South Wales Fire & Rescue Service,Forest View Business Park,,Llantrisant,Mid Glamorgan,,CF72 8LX,07887 632353,M-Flanagan@southwales-fire.gov.uk,Wales,Fire Service,Add,,,,,,,,,,,,,,,,,,,,,
743-005,,Martin,Henderson,,South Wales Fire & Rescue Service,Forest View Business Park,,Llantrisant,Mid Glamorgan,,CF72 8LX,01443 232000,m-henderson@southwales-fire.gov.uk,Wales,Fire Service,Add,,,,,,,,,,,,,,,,,,,,,
743-003,,Vaughan,Jenkins,,South Wales Fire & Rescue Service,Forest View Business Park,,Llantrisant,Mid Glamorgan,,CF72 8LX,,v-jenkins@southwales-fire.gov.uk,Wales,Fire Service,Add,,,,,,,,,,,,,,,,,,,,,
743,,Rob,Morris,,South Wales Fire & Rescue Service,Forest View Business Park,,Llantrisant,Mid Glamorgan,,CF72 8LX,,rj-morris@southwales-fire.gov.uk,Wales,Fire Service,Add,,,,,,,,,,,,,,,,,,,,,
743-004,,Ken,Ralph,,South Wales Fire & Rescue Service,Forest View Business Park,,Llantrisant,Mid Glamorgan,,CF72 8LX,01443 232000,k-Ralph@southwales-fire.gov.uk,Wales,Fire Service,Add,,,,,,,,,,,,,,,,,,,,,
752,,Linda,Haitana,,Southampton City Council,One Guildhall Square,,Southampton,Hampshire,United Kingdom,SO14 7FP,02380 833989 ,linda.haitana@southampton.gov.uk,South East,Unitary,PS,,,,,,,,,,,,,,,,,,,,,
753,,Simon,Ford,,Southend on Sea Borough Council,Civic Centre,Victoria Avenue,Southend,Essex,United Kingdom,SS2 6ER,01702 431212 x ,simon.ford@essex.pnn.police.uk,East of England,District,PS,,,,,,,,,,,,,,,,,,,,,
757,,Tim,Kita,,Spelthorne Borough Council,Council Offices ,Knowle Green ,Staines ,Middlesex,United Kingdom,TW18 1XB ,01784 446243 ,t.kita@spelthorne.gov.uk,East of England,District,PS,,,,,,,,,,,,,,,,,,,,,
760,Mrs,Helen,Lindfield,Community Safety Officer,St Edmundsbury Borough Council,West Suffolk House,Western Way,Bury St Edmunds  ,Suffolk,United Kingdom,IP33 3YU,01284 757 603 ,helen.lindfield@stedsbc.gov.uk,East of England,District,PS,,,,,,,,,,,,,,,,,,,,,
768,,Helen,Boyle,,Stockport Metropolitan Borough Council,Community Safety Unit ,2nd Floor Victoria House,Stockport ,Cheshire,United Kingdom,SK1 3XE ,0161 474 3130,helen.boyle@stockport.gov.uk,North West,Unitary,PS,,,,,,,,,,,,,,,,,,,,,
769,,Mike,Batty,,Stockton on Tees Borough Council,Community Protection Department,PO Box 232 16 Church Road,Stockton-on-Tees,Teesside,United Kingdom,TS18 1XD,01642 527074,mike.batty@stockton.gov.uk,North East,District,PS,,,,,,,,,,,,,,,,,,,,,
769-001,,Marilyn,Davies,,Stockton on Tees Borough Council,Development & Neighbourhood Services,PO Box 232 16 Church Road,Stockton-on-Tees,Teesside,United Kingdom,TS18 1XD,01642 527610,marilyn.davies@stockton.gov.uk,North East,District,Add,,,,,,,,,,,,,,,,,,,,,
769-002,,Vicky,Hatton,,Stockton on Tees Borough Council,Development & Neighbourhood Services,PO Box 232 16 Church Road,Stockton-on-Tees,Teesside,United Kingdom,TS18 1XD,01642 527619,vicky.hatton@stockton.gov.uk,North East,District,Add,,,,,,,,,,,,,,,,,,,,,
769-006,Mr,Steven,Hume,Community Safety Manager,Stockton on Tees Borough Council,Development & Neighbourhood Services,PO Box 232 16 Church Road,Stockton-on-Tees,Teesside,United Kingdom,TS18 1XD,01642 527610,steven.hume@stockton.gov.uk,North East,District,Add,,,,,,,,,,,,,,,,,,,,,
769-003,,Heather,Hutchings,,Stockton on Tees Borough Council,Stockton Police Staqtion,The Square,Stockton-on-Tees,Teesside,,TS18 1TZ,01642 527827,heather.hutchings@stockton.gov.uk,North East,District,Add,,,,,,,,,,,,,,,,,,,,,
769-004,,Steven,Nelson,,Stockton on Tees Borough Council,Development & Neighbourhood Services,PO Box 232 16 Church Road,Stockton-on-Tees,Teesside,United Kingdom,TS18 1XD,01642 534417,steven.nelson@stockton.gov.uk,North East,District,Add,,,,,,,,,,,,,,,,,,,,,
769-005,,Claire,Sills,,Stockton on Tees Borough Council,Development & Neighbourhood Services,PO Box 232 16 Church Road,Stockton-on-Tees,Teesside,United Kingdom,TS18 1XD,01642 527616,claire.sills@stockton.gov.uk,North East,District,Add,,,,,,,,,,,,,,,,,,,,,
1015,Ms,Anna,Lord,Central Administrator,Stop it Now! UK & Ireland,"Bordesley Hall, The Holloway",Alvechurch,Birmingham,West Midlands,United Kingdom,B48 7QA,01527 598184,office@stopitnow.org.uk,West Midlands,Charity,Lge Charity,,,,,,,,,,,,,,,,,,,,,
772,,Ryan,Tracey,,Strabane District Council,47 Derry Road,,Strabane,County Tyrone,United Kingdom,BT82 8DY,02871 382204,rtracey@strabanedc.com,Northern Ireland,Unitary,PS,,,,,,,,,,,,,,,,,,,,,
774-001,,George,McGrandles,,Strathclyde Fire & Rescue Service,Fire & Rescue HQ,Bothwell Road,Hamilton,Scotland,United Kingdom,ML3 0EA,01698 338213,george.mcgrandles@strathclydefire.org,Scotland,Fire Service,Add,,,,,,,,,,,,,,,,,,,,,
774-002,,Martin,Millar,,Strathclyde Fire & Rescue Service,Fire & Rescue HQ ,Bothwell Road ,Hamilton ,Strathclyde,,ML3 0EA ,01555 667007,martin.millar@strathclydefire.org,Scotland,Fire Service,Add,,,,,,,,,,,,,,,,,,,,,
774-003,,Lewis,Ramsay,,Strathclyde Fire & Rescue Service,Fire & Rescue HQ ,Bothwell Road ,Hamilton ,Strathclyde,,ML3 0EA ,01698 338315,lewis.ramsay@strathclydefire.org,Scotland,Fire Service,Add,,,,,,,,,,,,,,,,,,,,,
774,,David,Smith,,Strathclyde Fire & Rescue Service,Fire & Rescue HQ,Bothwell Road,Hamilton,Strathclyde,United Kingdom,ML3 0EA,01698 402213,david.smith@strathclydefire.org,Scotland,Fire Service,PS,,,,,,,,,,,,,,,,,,,,,
778-001,Mr,Paul,Helbrow,Community Safety Manager,Stroud District Council,Council Offices,Ebley Mill,Stroud,Gloucestershire,United Kingdom,GL5 4UB,01453 754281,paul.helbrow@stroud.gov.uk,South West,District,Add,,,,,,,,,,,,,,,,,,,,,
778,Mr,Philip,Sullivan,Head of Community Safety,Stroud District Council,Council Offices ,Ebley Mill ,Stroud ,Gloucestershire,United Kingdom,GL5 4UB ,01453 754280 ,philip.sullivan@stroud.gov.uk,South West,District,PS,,,,,,,,,,,,,,,,,,,,,
783,,Cheryl,Holder,,Suffolk Coastal District Council,Council Offices ,Melton Hill ,Woodbridge ,Suffolk,United Kingdom,IP12 1AU ,01394 444518 ,cheryl.holder@suffolkcoastal.gov.uk,East of England,District,PS,,,,,,,,,,,,,,,,,,,,,
785,,Alan,Keely,Community Safety Manager,Suffolk County Council Community Safety,Endeavour House,8 Russell Road,Ipswich ,Suffolk,United Kingdom,IP1 2BX,01473 265157,alan.keely@csu.suffolkcc.gov.uk,East of England,County,PS,,,,,,,,,,,,,,,,,,,,,
789,Dr,Julie,Smith,Community Safety Manager,Sunderland City Council,Office of Chief Executive,PO Box 100 Civic Centre ,Sunderland,Tyne And Wear,United Kingdom,SR2 7DN ,0191 561 1591,julie.smith@sunderland.gov.uk,North East,Unitary,PS,,,,,,,,,,,,,,,,,,,,,
791,,Gordon,Falconer,,Surrey Community Safety Unit,"Room 157, County Hall",Penrhyn Road,Kingston-upon-Thames,Surrey,,KT1 2DW,,gordon.falconer@surreycc.gov.uk,South East,County,PS,,,,,,,,,,,,,,,,,,,,,
794,,Bob,Jenkin,,Surrey Police,Guildford Police Station,Margaret Road,Guildford ,Surrey,United Kingdom,GU1 4QS,01483 632506,Jenkin2905@surrey.pnn.police.uk,South East,Police Service,PS,,,,,,,,,,,,,,,,,,,,,
797-001,Mr,Peter,Cowlett,"Head of Community Safety, Partnership and Youth",Sussex Police,Neighbourhood Policing Branch,Police Headquarters Church Lane,Lewes ,East Sussex,United Kingdom,BN7 2DZ,01273 404866,peter.cowlett@sussex.pnn.police.uk,South East,Police Service,Add,,,,,,,,,,,,,,,,,,,,,
797,Miss,Simone,Sorrell,Partnership Development Officer,Sussex Police,"C&JD, Arundel Block",Church Lane,Lewes ,East Sussex,,BN7 2DZ,01273 404865,simone.sorrell@sussex.pnn.police.uk,South East,Police Service,PS,,,,,,,,,,,,,,,,,,,,,
798,,Richard,Palusinski,,Swindon Community Safety Partnership,"5th Floor, Wat Tyler West","Civic Offices, Euclid Street",Swindon,Wiltshire,,SN1 2JH,01793 466055,rpalusinski@swindon.gov.uk,South West,District,PS,,,,,,,,,,,,,,,,,,,,,
801,Ms,Hilary,New,Community Safety Manager,Tandridge District Council,Council Offices ,Station Road East ,Oxted ,Surrey,United Kingdom,RH8 0BT ,01883 732703 ,hnew@tandridge.gov.uk,South East,District,PS,,,,,,,,,,,,,,,,,,,,,
802,,Scott,Weetch,,Taunton Deane Borough Council,The Deane House ,Belvedere Road ,Taunton ,Somerset,United Kingdom,TA1 1HE ,01823 356317,s.weetch@tauntondeane.gov.uk,South West,District,PS,,,,,,,,,,,,,,,,,,,,,
803,,Andrew,Hermiston,,Tayside Fire & Rescue Servicce,Community Safety HQ,Macalpine Road,Dundee,Scotland,,DD3 8SA,01382 825295,andy.hermiston@taysidefire.gov.uk,Scotland,Fire Service,PS,,,,,,,,,,,,,,,,,,,,,
805,,Jas,Bedesha,,Telford & Wrekin Community Safety,Community Governance ,Civic Offices PO Box 59,Telford ,Shropshire,United Kingdom,TF3 4WZ ,01952 382101 ,jas.bedesha@telford.gov.uk,West Midlands,District,PS,,,,,,,,,,,,,,,,,,,,,
806,,Leanne,Thornton,,Tendring District Council,Barnes House,92 Pier Avenue,Clacton on Sea,Essex,United Kingdom,CO15 1TN,01255 680355,lthornton@tendringdc.gov.uk,East of England,District,PS,,,,,,,,,,,,,,,,,,,,,
807,,Garry,Tallett,,Test Valley Borough Council,Beechurst  ,Weyhill Rd ,Andover  ,Hampshire,United Kingdom,SP10 3AJ ,01264 368606 ,gtallett@testvalley.gov.uk,South East,District,PS,,,,,,,,,,,,,,,,,,,,,
122-001,,Jessica,Bailey,,Thanet District Council,41 Hawley Square,,Margate,Kent,,CT9 1NY,01843 577737,jessica.bailey@thanet.gov.uk,South East,District,Add,,,,,,,,,,,,,,,,,,,,,
122-002,,Lacy,Dixon,,Thanet District Council,41 Hawley Square,,Margate,Kent,,CT9 1NY,01843 577608,lacy.dixon@thanet.gov.uk,South East,District,Add,,,,,,,,,,,,,,,,,,,,,
122,,Mark,Richardson,,Thanet District Council,41 Hawley Square,,Margate,Kent,United Kingdom,CT9 1NY,01843 577605,mark.richardson@thanet.gov.uk,South East,District,PS,,,,,,,,,,,,,,,,,,,,,
1001,,Thomas,Cartwright,,Thomas Cartwright,59 Rhymney Street,,Cardiff,South Glamorgan,,CF24 4DH,07950 472054,tom_cartwright779@hotmail.com,Wales,Other,Student,,,,,,,,,,,,,,,,,,,,,
826,,Ann Michele,Chesterman,,Torfaen County Borough Council,Civic Centre,,Pontypool,Wales,United Kingdom,NP4 6YB,01633 628993,michele.chesterman@torfaen.gov.uk,Wales,Unitary,PS,,,,,,,,,,,,,,,,,,,,,
829,,Graham,Daly,,Transport for London,200 Buckingham Palace Road,,London,London,United Kingdom,SW1W 9TA,0207 027 8375,Graham.Daly@tfl-buses.co.uk,London,Other,PS,,,,,,,,,,,,,,,,,,,,,
832,,Frances,Taylor,Community Safety Coordinator,Tunbridge Wells Borough Council,Town Hall ,,Royal Tunbridge Wells ,Kent,United Kingdom,TN1 1RS ,01892 554112,frances.taylor@tunbridgewells.gov.uk,South East,District,PS,,,,,,,,,,,,,,,,,,,,,
834-001,,Peter,Mudie,District Manager,Tyne & Wear Fire & Rescue Service,,Barmston Mere,Washington,Tyne And Wear,United Kingdom,SR5 3QY,0191 444 1500,peter.mudie@twfire.gov.uk,North East,Fire Service,Add,,,,,,,,,,,,,,,,,,,,,
834-002,,Keith,Carruthers,District Manager,Tyne & Wear Fire & Rescue Service,SHQ,Barmston Mere,Washington,Tyne And Wear,United Kingdom,SR5 3QY,0191 444 1500,keith.carruthers@twfire.gov.uk,North East,Fire Service,Add,,,,,,,,,,,,,,,,,,,,,
834-003,,Tony,Markwell,District Manager,Tyne & Wear Fire & Rescue Service,SHQ Nissan Way,Barmston Mere,Washington,Tyne And Wear,,SR5 3QY,0191 444 1500,tony.markwell@twfire.gov.uk,North East,Fire Service,Add,,,,,,,,,,,,,,,,,,,,,
834-004,,Paul,Tait,District Manager,Tyne & Wear Fire & Rescue Service,SHQ Nissan Way,Barmston mere,Washington,Tyne And Wear,,SR5 3QY,0191 444 1500,paul.tait@twfire.gov.uk,North East,Fire Service,Add,,,,,,,,,,,,,,,,,,,,,
834-005,,Ian,Robertson,District Manager,Tyne & Wear Fire & Rescue Service,SHQ Nissan Way,Barmston mere,Washington,Tyne And Wear,,SR5 3QY,0191 444 1500,ian.robertson@twfire.gov.uk,North East,Fire Service,Add,,,,,,,,,,,,,,,,,,,,,
834,Mr,Steve,Stokoe,Area Manager,Tyne & Wear Fire & Rescue Service,Birtly Fire Station,Durham Road,Birtley,Tyne And Wear,,DH3 1LU,0191 444 1894,steve.stokoe@twfire.gov.uk,North East,Fire Service,PS,,,,,,,,,,,,,,,,,,,,,
985,,June,Armstrong,,University of Central Lancashire,School of Forensic & Investigative Sciences,Fylde Road,Preston,Lancashire,,PR1 2HE,01772 894178,JArmstrong@uclan.ac.uk,North West,Other,PS,,,,,,,,,,,,,,,,,,,,,
985-001,,Jill,Parkinson,,University of Central Lancashire,School of Forensic & Investigative Sciences,Fylde Road,Preston,Lancashire,,PR1 2HE,01772 894178,jparkinson1@uclan.ac.uk,North West,Other,Add,,,,,,,,,,,,,,,,,,,,,
985-002,,Jayn,Pearson,,University of Central Lancashire,School of Forensic & Investigative Sciences,Maudland MB44,Preston,Lancashire,,PR1 2HE,01772 894593,JPearson2@uclan.ac.uk,North West,Other,Add,,,,,,,,,,,,,,,,,,,,,
845,Ms,Nasim,Aslam,Community & Partnership Support Officer,Wakefield District Council,"Room 47, Town Hall",Wood Street,Wakefield,West Yorkshire,,WF1 2HQ,01924 305735,naslam@wakefield.gov.uk,Yorks & Humber,District,PS,,,,,,,,,,,,,,,,,,,,,
845-002,,Olivia,Rowley,,Wakefield District Council,"Room 47, Town Hall",Wood Street,Wakefield,West Yorkshire,,WF1 2HQ,01924 305880,orowley@wakefield.gov.uk,Yorks & Humber,District,Add,,,,,,,,,,,,,,,,,,,,,
118,Ms,Lynne,Hughes,Area Manager - Community Safety,Walsall Council,Community Safety Services,"191a Broadway, Delves",Walsall ,West Midlands,United Kingdom,WS1 3HD,01922 654289,HughesLynne@walsall.gov.uk,West Midlands,District,PS,,,,,,,,,,,,,,,,,,,,,
853,Mr,Mark,Floyd,Neighbourhood Action Team Coordinator,Warrington Borough Council,Charles Stewart House,,Warrington,Cheshire,United Kingdom,WA1 1NE,01244 615805,mark.floyd@cheshire.pnn.police.uk ,North West,District,PS,,,,,,,,,,,,,,,,,,,,,
855-001,Ms,Nadine,Dransfield,Community Safety Project Officer Team Leader,Warwickshire County Ciouncil,"Customers, Workforce & Governance","Shire Hall, PO Box 9",Warwick,Warwickshire,,CV34 4RR,01926 483163,nadinedransfield@warwickshire.gov.uk,West Midlands,County,Add,,,,,,,,,,,,,,,,,,,,,
855,,Julie,Sullivan,,Warwickshire County Ciouncil,Chief Executives Department ,Shire Hall  PO Box 9 ,Warwick ,Warwickshire,United Kingdom,CV34 4RR ,01926 746804,juliesullivan@warwickshire.gov.uk,West Midlands,County,PS,,,,,,,,,,,,,,,,,,,,,
857,,Jane,Taylor,,Watford Borough Council,Town Hall ,,Watford ,Hertfordshire,United Kingdom,WD17 3EX,01923-278405 ,jane.taylor@watford.gov.uk,East of England,District,PS,,,,,,,,,,,,,,,,,,,,,
859,,Ian,Grist,,Waverley Borough Council,The Burys,,Godalming,Surrey,United Kingdom,GU7 1HR,01483 523386,ian.grist@waverley.gov.uk,South East,District,PS,,,,,,,,,,,,,,,,,,,,,
863,Ms,Rachel,Morgan,Community Safety Policy Officer,Welsh Local Government Association,Local Government House,Drake Walk,Cardiff,Wales,United Kingdom,CF10 4LG,02920 468651,rachel.morgan@wlga.gov.uk,Wales,Government,Subscription,,,,,,,,,,,,,,,,,,,,,
864,,Tim,Beyer,,Welwyn Hatfield Council,Council Offices ,The Campus ,Welwyn Garden City ,Hertfordshire,United Kingdom,AL8 6AE ,01707 357184 ,t.beyer@welhat.gov.uk,East of England,District,PS,,,,,,,,,,,,,,,,,,,,,
867,Ms,Rachel,Craggs,Crime Reduction Manager,West Berkshire Council,Safer Communities Partnership Team,20 Mill Lane,Newbury ,Berkshire,United Kingdom,RG14 5QU,01635 264617,rcraggs@westberks.gov.uk,South East,District,PS,,,,,,,,,,,,,,,,,,,,,
873,,Marrianne,Desir-Coward,,West Midlands Fire & Rescue Service,Headquarters,99 Vauxhall Road,Birmingham ,West Midlands,United Kingdom,B7 4HW,0121 380 6712,contact@wmfs.net,West Midlands,Fire Service,PS,,,,,,,,,,,,,,,,,,,,,
874,,Alethea,Fuller,,West Midlands Police Authority,Lloyd House,Colmore Circus Queensway,Birmingham ,West Midlands,United Kingdom,B4 6NR,0121 626 5366,a.fuller@west-midlands.pnn.police.uk,West Midlands,Police Service,PS,,,,,,,,,,,,,,,,,,,,,
875,Mrs,Danielle,Hilton,Partnership Communications Officer,West Oxfordshire District Council,Safer Communities Partnership,Elmfield District Council Offices,"New Yatt Road, Witney",Oxfordshire,,OX28 1PB,01993 861640 ,Danielle.Hilton@WESTOXON.gov.uk,South East,District,PS,,,,,,,,,,,,,,,,,,,,,
876,,Emily,King,Better Communities Manager,West Sussex County Council,"Room 215, Second Floor, East Wing",County Hall,Chichester ,West Sussex,United Kingdom,PO19 1RG,01243 382612,Emily.king@westsussex.gov.uk,South East,County,PS,,,,,,,,,,,,,,,,,,,,,
876-001,,Beverly,Knight,"Lead Professional, Community Safety",West Sussex County Council,"Room 215, Second Floor, East Wing",County Hall,Chichester ,West Sussex,United Kingdom,PO19 1RG,01243 382604 ,Beverly.knight@westsussex.gov.uk,South East,County,Add,,,,,,,,,,,,,,,,,,,,,
876-002,Mrs,Tanya,Mackay,"Lead Professional, Community Safety",West Sussex County Council,"Room 215, Second Floor, East Wing",County Hall,Chichester ,West Sussex,United Kingdom,PO19 1RG,01243 382614,tanya.mackay@westsussex.gov.uk,South East,County,Add,,,,,,,,,,,,,,,,,,,,,
,,Frankie,Froggett,,West Yorkshire Police,PO Box 9,Laburnum Road,Wakefield,West Yorkshire,,WF1 3QP,01924 282551,frankie.froggett@westyorkshire.pnn.police.uk,Yorks & Humber,Police Service,Associate,,,,,,,,,,,,,,,,,,,,,
884,,Pippa,McVeigh,,Wiltshire Council,Polebarn Road,,Trowbridge,Wiltshire,United Kingdom,BA14 7EG ,01225-776890,pippa.mcveigh@wiltshire.gov.uk,South West,County,PS,,,,,,,,,,,,,,,,,,,,,
891,,Steve,McGilvray,,Wirral Metropolitan Borough Council,Old Court House,Manor Road,Wallasey,Merseyside,United Kingdom,CH41 5FN ,0151 606 5485,stevemcgilvray@wirral.gov.uk,North West,Unitary,PS,,,,,,,,,,,,,,,,,,,,,
894,,Camilla,Edmiston,,Woking Borough Council,Civic Offices ,Gloucester Square  ,Woking ,Surrey,United Kingdom,GU21 6YL ,01483 743080 ,camilla.edmiston@woking.gov.uk,South East,District,PS,,,,,,,,,,,,,,,,,,,,,
894-001,,Gabbie,Johnson,,Woking Borough Council,Civic Offices ,Gloucester Square  ,Woking ,Surrey,United Kingdom,GU21 6YL ,01483 743459,gabrielle.johnson@woking.gov.uk,South East,District,Add,,,,,,,,,,,,,,,,,,,,,
895,,Helen,Grimbleby,,Wokingham District Council,Chief Executives Dept. ,PO Box 150  Shute End ,Wokingham ,Berkshire,United Kingdom,RG40 1WN,01189 746040 ,helen.grimbleby@wokingham.gov.uk,South East,District,PS,,,,,,,,,,,,,,,,,,,,,
902,Mr,David,Hemming,Community Safety Manager,Wychavon District Council,Civic Centre ,Queen Elizabeth Drive ,Pershore,Worcestershire,United Kingdom,WR10 1PT ,01386 565301 ,david.hemming@wychavon.gov.uk,South West,District,PS,,,,,,,,,,,,,,,,,,,,,
903-001,Ms,Sarah,Hazel,Community Safety Team Leader,Wycombe District Council,Queen Victoria Road ,,High Wycombe,Buckinghamshire,United Kingdom,HP11 1BB ,01494 421876,sarah_hazel@wycombe.gov.uk,South East,District,Add,,,,,,,,,,,,,,,,,,,,,
903-002,Ms,Gemma,Roberts,Community Safety Officer,Wycombe District Council,Queen Victoria Road ,,High Wycombe,Buckinghamshire,United Kingdom,HP11 1BB ,01494 421117,gemma_roberts@wycombe.gov.uk,South East,District,Add,,,,,,,,,,,,,,,,,,,,,
903,Mrs,Gillian,Stimpson,Community Safety Manager,Wycombe District Council,Queen Victoria Road ,,High Wycombe,Buckinghamshire,United Kingdom,HP11 1BB ,01494 421404 ,gillian_stimpson@wycombe.gov.uk,South East,District,PS,,,,,,,,,,,,,,,,,,,,,
904,,Jane,Dunleavy,,Wyre Community Safety Partnership,Wyre Borough Council,Breck Road,Poulton-le-Fylde,Lancashire,United Kingdom,FY6 7PU,01253 887292,jdunleavy@wyrebc.gov.uk,North West,District,PS,,,,,,,,,,,,,,,,,,,,,
907,,Tony Wyn,Jones,,Ynys Mon Community Safety Partnership,Ynys Mon County Council,Council Offices,Llangefni,Gwynedd County,United Kingdom,LL77 7TW,01248 752 816,tonyjones@anglesey.gov.uk,Wales,District,PS,,,,,,,,,,,,,,,,,,,,,